{
    "contacts": {
        "page": 1,
        "pages": 2,
        "per_page": "1000",
        "perpage": "1000",
        "total": "1108",
        "contact": [
            {
                "nsid": "124830340@N02",
                "username": "#QuânArt",
                "iconserver": "65535",
                "iconfarm": 66,
                "ignored": 0,
                "rev_ignored": 0,
                "realname": "ÁO DÀI SÀI GÒN www.facebook.com\/aodaisaigon.info\/",
                "friend": 0,
                "family": 0,
                "path_alias": "quannguyenfoto",
                "location": "viet nam"
            },
            {
                "nsid": "124830340@N02",
                "username": "'19 Ryker - Thanks For 100Mill Views!!!",
                "iconserver": "7407",
                "iconfarm": 8,
                "ignored": 0,
                "rev_ignored": 0,
                "realname": "Sean",
                "friend": 0,
                "family": 0,
                "path_alias": "",
                "location": ""
            }
        ]
    },
    "stat": "ok"
}
