{ "contacts": { "page": 2, "pages": 2, "per_page": "1000", "perpage": "1000", "total": "1108",
    "contact": [
        { "nsid": "89367233@N05", "username": "**Ming**", "iconserver": "1522", "iconfarm": 2, "ignored": 0, "rev_ignored": 0, "realname": "", "friend": 0, "family": 0, "path_alias": "", "location": "" },
        { "nsid": "135101618@N05", "username": "big.pig", "iconserver": "1677", "iconfarm": 2, "ignored": 0, "rev_ignored": 0, "realname": "Big Pig", "friend": 0, "family": 0, "path_alias": "trunghieufotos", "location": "" },
        { "nsid": "64263676@N06", "username": "Chiuan Lin", "iconserver": "1683", "iconfarm": 2, "ignored": 0, "rev_ignored": 0, "realname": "", "friend": 0, "family": 0, "path_alias": "ging9725", "location": " Taichung , TAIWAN" },
        { "nsid": "119646373@N04", "username": "dershaven", "iconserver": "65535", "iconfarm": 66, "ignored": 0, "rev_ignored": 0, "realname": "Franky", "friend": 0, "family": 0, "path_alias": "wunsch-bild", "location": "" },
        { "nsid": "114592777@N08", "username": "gghbx", "iconserver": "65535", "iconfarm": 66, "ignored": 0, "rev_ignored": 0, "realname": "", "friend": 0, "family": 0, "path_alias": "" },
        { "nsid": "39769305@N04", "username": "jotaroooo", "iconserver": "65535", "iconfarm": 66, "ignored": 0, "rev_ignored": 0, "realname": "", "friend": 0, "family": 0, "path_alias": "misono119", "location": "" },
        { "nsid": "136973718@N04", "username": "Lucifer White", "iconserver": "694", "iconfarm": 1, "ignored": 0, "rev_ignored": 0, "realname": "慕白 諸葛", "friend": 0, "family": 0, "path_alias": "manboy0408", "location": "Taipei, Taiwan" },
        { "nsid": "79102897@N05", "username": "MasatŌ", "iconserver": "4609", "iconfarm": 5, "ignored": 0, "rev_ignored": 0, "realname": "正刀", "friend": 0, "family": 0, "path_alias": "fragileruins", "location": "日本（JAPAN）" },
        { "nsid": "131667997@N02", "username": "Vin foto", "iconserver": "4563", "iconfarm": 5, "ignored": 0, "rev_ignored": 0, "realname": "", "friend": 0, "family": 0, "path_alias": "" },
        { "nsid": "69884037@N00", "username": "Vincent Wo", "iconserver": "65535", "iconfarm": 66, "ignored": 0, "rev_ignored": 0, "realname": "", "friend": 0, "family": 0, "path_alias": "vincentwo", "location": "Lausanne, Suisse" },
        { "nsid": "57944809@N03", "username": "vinovinovino41", "iconserver": "4149", "iconfarm": 5, "ignored": 0, "rev_ignored": 0, "realname": "佑東 林", "friend": 0, "family": 0, "path_alias": "asklin", "location": "台北市, 台灣" },
        { "nsid": "96165016@N08", "username": "Viviane + Eric #LulaLivre", "iconserver": "65535", "iconfarm": 66, "ignored": 0, "rev_ignored": 0, "realname": "Viviane Eric", "friend": 0, "family": 0, "path_alias": "eric-battistelli", "location": "São Paulo, Brazil" },
        { "nsid": "7252621@N07", "username": "VjnA aRT", "iconserver": 0, "iconfarm": 0, "ignored": 0, "rev_ignored": 0, "realname": "", "friend": 0, "family": 0, "path_alias": "", "location": "" },
        { "nsid": "190012331@N02", "username": "vu151", "iconserver": "65535", "iconfarm": 66, "ignored": 0, "rev_ignored": 0, "realname": "vu lan", "friend": 0, "family": 0, "path_alias": "" },
        { "nsid": "77576077@N04", "username": "vucamry1", "iconserver": 0, "iconfarm": 0, "ignored": 0, "rev_ignored": 0, "realname": "", "friend": 0, "family": 0, "path_alias": "", "location": "" },
        { "nsid": "126857951@N04", "username": "vuhai.foto", "iconserver": "525", "iconfarm": 1, "ignored": 0, "rev_ignored": 0, "realname": "Hải Vũ", "friend": 0, "family": 0, "path_alias": "vuhaifoto", "location": "" },
        { "nsid": "126957173@N04", "username": "vulv2101", "iconserver": 0, "iconfarm": 0, "ignored": 0, "rev_ignored": 0, "realname": "Lê Văn Vũ", "friend": 0, "family": 0, "path_alias": "", "location": "" },
        { "nsid": "97790059@N05", "username": "Vũ Vật Vã Wedding Studio | 0962 444 784", "iconserver": "7362", "iconfarm": 8, "ignored": 0, "rev_ignored": 0, "realname": "", "friend": 0, "family": 0, "path_alias": "vuvatvafotography" },
        { "nsid": "138580216@N03", "username": "vịt lạch bạch", "iconserver": "1480", "iconfarm": 2, "ignored": 0, "rev_ignored": 0, "realname": "xuân thùy", "friend": 0, "family": 0, "path_alias": "", "location": "" },
        { "nsid": "37821259@N08", "username": "wallace_Lan", "iconserver": "3312", "iconfarm": 4, "ignored": 0, "rev_ignored": 0, "realname": "", "friend": 0, "family": 0, "path_alias": "wallace-lan" },
        { "nsid": "99097633@N00", "username": "wandeclayt", "iconserver": "2828", "iconfarm": 3, "ignored": 0, "rev_ignored": 0, "realname": "Wandeclayt M.", "friend": 0, "family": 0, "path_alias": "wandeclayt", "location": "São José dos Campos, Brazil" },
        { "nsid": "92537543@N08", "username": "Wang Wangg", "iconserver": "8686", "iconfarm": 9, "ignored": 0, "rev_ignored": 0, "realname": "", "friend": 0, "family": 0, "path_alias": "", "location": "" },
        { "nsid": "162166559@N02", "username": "wanimal983", "iconserver": "4826", "iconfarm": 5, "ignored": 0, "rev_ignored": 0, "realname": "WANIMAL", "friend": 0, "family": 0, "path_alias": "", "location": "南寧 , 中國" },
        { "nsid": "158750636@N06", "username": "WarrenLee8189", "iconserver": "4665", "iconfarm": 5, "ignored": 0, "rev_ignored": 0, "realname": "Lee Warren", "friend": 0, "family": 0, "path_alias": "warrenlee8189", "location": "" },
        { "nsid": "60575475@N00", "username": "web4vn", "iconserver": "1501", "iconfarm": 2, "ignored": 0, "rev_ignored": 0, "realname": "Tuấn Anh Trương", "friend": 0, "family": 0, "path_alias": "web4vn", "location": "" },
        { "nsid": "66579113@N03", "username": "Wei Key Li", "iconserver": "6065", "iconfarm": 7, "ignored": 0, "rev_ignored": 0, "realname": "", "friend": 0, "family": 0, "path_alias": "wei_key_li", "location": "" },
        { "nsid": "142919003@N06", "username": "wenjilin", "iconserver": "65535", "iconfarm": 66, "ignored": 0, "rev_ignored": 0, "realname": "wenji lin", "friend": 0, "family": 0, "path_alias": "", "location": "" },
        { "nsid": "36669150@N08", "username": "westd2009", "iconserver": "3353", "iconfarm": 4, "ignored": 0, "rev_ignored": 0, "realname": "", "friend": 0, "family": 0, "path_alias": "" },
        { "nsid": "50514695@N00", "username": "wewe218", "iconserver": "7455", "iconfarm": 8, "ignored": 0, "rev_ignored": 0, "realname": "", "friend": 0, "family": 0, "path_alias": "wewe218", "location": "" },
        { "nsid": "27599863@N04", "username": "whole battle", "iconserver": 0, "iconfarm": 0, "ignored": 0, "rev_ignored": 0, "realname": "Whole Battle", "friend": 0, "family": 0, "path_alias": "vincehemingson", "location": "" },
        { "nsid": "79122264@N00", "username": "WhyN?t", "iconserver": "3486", "iconfarm": 4, "ignored": 0, "rev_ignored": 0, "realname": "", "friend": 0, "family": 0, "path_alias": "", "location": "" },
        { "nsid": "95315907@N02", "username": "wind708", "iconserver": "7315", "iconfarm": 8, "ignored": 0, "rev_ignored": 0, "realname": "Z Yh", "friend": 0, "family": 0, "path_alias": "" },
        { "nsid": "24166153@N08", "username": "winkytiki", "iconserver": "2816", "iconfarm": 3, "ignored": 0, "rev_ignored": 0, "realname": "", "friend": 1, "family": 0, "path_alias": "winkytiki", "location": "Bethlehem PA, United States" },
        { "nsid": "89054436@N02", "username": "wkc.1", "iconserver": "65535", "iconfarm": 66, "ignored": 0, "rev_ignored": 0, "realname": "WKC", "friend": 0, "family": 0, "path_alias": "wkc1", "location": "Hong Kong" },
        { "nsid": "100380656@N06", "username": "wrift@wood", "iconserver": "2861", "iconfarm": 3, "ignored": 0, "rev_ignored": 0, "realname": "", "friend": 0, "family": 0, "path_alias": "drift-wood" },
        { "nsid": "48161306@N04", "username": "WSG Photography", "iconserver": "65535", "iconfarm": 66, "ignored": 0, "rev_ignored": 0, "realname": "", "friend": 0, "family": 0, "path_alias": "trever1t", "location": "San Jose, USA" },
        { "nsid": "124606996@N02", "username": "www.facebook.com\/lemonphoto49", "iconserver": "7823", "iconfarm": 8, "ignored": 0, "rev_ignored": 0, "realname": "LEMON Studio", "friend": 0, "family": 0, "path_alias": "lemonphotography49", "location": "Hồ Chí Minh, Vietnam" },
        { "nsid": "26976735@N05", "username": "www.facebook.com\/palomaphoto", "iconserver": "7306", "iconfarm": 8, "ignored": 0, "rev_ignored": 0, "realname": "PA LO MA", "friend": 0, "family": 0, "path_alias": "huylam81", "location": "" },
        { "nsid": "8539636@N08", "username": "Wậy Xíu", "iconserver": "8465", "iconfarm": 9, "ignored": 0, "rev_ignored": 0, "realname": "Quan Vũ", "friend": 0, "family": 0, "path_alias": "vinh8xbh", "location": "" },
        { "nsid": "28325388@N08", "username": "xgames_2080", "iconserver": "2927", "iconfarm": 3, "ignored": 0, "rev_ignored": 0, "realname": "Tuấn  Hoàng", "friend": 0, "family": 0, "path_alias": "" },
        { "nsid": "149222355@N07", "username": "xinhailaoliu2", "iconserver": 0, "iconfarm": 0, "ignored": 0, "rev_ignored": 0, "realname": "xinhailaoliu yang", "friend": 0, "family": 0, "path_alias": "", "location": "" },
        { "nsid": "106581493@N07", "username": "xiru1015", "iconserver": "5487", "iconfarm": 6, "ignored": 0, "rev_ignored": 0, "realname": "", "friend": 0, "family": 0, "path_alias": "hecate-c", "location": "" },
        { "nsid": "150656529@N02", "username": "XiễnBột", "iconserver": "7802", "iconfarm": 8, "ignored": 0, "rev_ignored": 0, "realname": "Xiễn Bột", "friend": 0, "family": 0, "path_alias": "", "location": "" },
        { "nsid": "137043424@N05", "username": "xoatena26", "iconserver": "590", "iconfarm": 1, "ignored": 0, "rev_ignored": 0, "realname": "", "friend": 0, "family": 0, "path_alias": "" },
        { "nsid": "122698887@N03", "username": "xuanhieu.nguyen94", "iconserver": "7127", "iconfarm": 8, "ignored": 0, "rev_ignored": 0, "realname": "Hiệu R.Nguyễn", "friend": 0, "family": 0, "path_alias": "", "location": "" },
        { "nsid": "44704211@N06", "username": "XuKan Trương ( 0967299993 )", "iconserver": "5461", "iconfarm": 6, "ignored": 0, "rev_ignored": 0, "realname": "", "friend": 0, "family": 0, "path_alias": "xukan_truong", "location": "" },
        { "nsid": "145300080@N04", "username": "xxVATxx", "iconserver": "65535", "iconfarm": 66, "ignored": 0, "rev_ignored": 0, "realname": "Việt Anh Trần", "friend": 0, "family": 0, "path_alias": "vgfoto", "location": "" },
        { "nsid": "73870337@N03", "username": "yamato 1977", "iconserver": "1653", "iconfarm": 2, "ignored": 0, "rev_ignored": 0, "realname": "", "friend": 0, "family": 0, "path_alias": "", "location": "" },
        { "nsid": "15118972@N06", "username": "YAN™", "iconserver": "2040", "iconfarm": 3, "ignored": 0, "rev_ignored": 0, "realname": "Anh Vo Thai", "friend": 0, "family": 0, "path_alias": "yanvn", "location": "Ho Chi Minh, Vietnam" },
        { "nsid": "79268055@N06", "username": "Yaua Fotoz", "iconserver": "3936", "iconfarm": 4, "ignored": 0, "rev_ignored": 0, "realname": "Thiện Thiện", "friend": 0, "family": 0, "path_alias": "yaua-photography", "location": "" },
        { "nsid": "16447499@N02", "username": "yessplease", "iconserver": "3520", "iconfarm": 4, "ignored": 0, "rev_ignored": 0, "realname": "Yess Please", "friend": 0, "family": 0, "path_alias": "sexxplease", "location": "Toronto, Canada" },
        { "nsid": "129192836@N06", "username": "yeuchoncuocdoi90", "iconserver": "7282", "iconfarm": 8, "ignored": 0, "rev_ignored": 0, "realname": "Củ Chuối Giang", "friend": 0, "family": 0, "path_alias": "", "location": "" },
        { "nsid": "112821009@N08", "username": "Yi-Hung Wu", "iconserver": "7448", "iconfarm": 8, "ignored": 0, "rev_ignored": 0, "realname": "翊弘 吳", "friend": 0, "family": 0, "path_alias": "yihong-wu", "location": "Taoyuan, Taiwan" },
        { "nsid": "92527722@N07", "username": "yokotachaos", "iconserver": "8050", "iconfarm": 9, "ignored": 0, "rev_ignored": 0, "realname": "仕釗 陳", "friend": 0, "family": 0, "path_alias": "yokotachaos", "location": "台中, Taiwan" },
        { "nsid": "149538315@N07", "username": "yonsinchin", "iconserver": "594", "iconfarm": 1, "ignored": 0, "rev_ignored": 0, "realname": "Yon Sin Chin", "friend": 0, "family": 0, "path_alias": "", "location": "" },
        { "nsid": "59998846@N06", "username": "Yu-Yao Hsueh", "iconserver": "4295", "iconfarm": 5, "ignored": 0, "rev_ignored": 0, "realname": "", "friend": 0, "family": 0, "path_alias": "yancyh", "location": "" },
        { "nsid": "140996035@N04", "username": "yukirasei", "iconserver": "1636", "iconfarm": 2, "ignored": 0, "rev_ignored": 0, "realname": "KIRASEI YU", "friend": 0, "family": 0, "path_alias": "yukirasei", "location": "新北市" },
        { "nsid": "12405797@N03", "username": "zacemh", "iconserver": 0, "iconfarm": 0, "ignored": 0, "rev_ignored": 0, "realname": "", "friend": 0, "family": 0, "path_alias": "", "location": "" },
        { "nsid": "120501173@N07", "username": "ZELL CHING", "iconserver": "65535", "iconfarm": 66, "ignored": 0, "rev_ignored": 0, "realname": "", "friend": 0, "family": 0, "path_alias": "fantasy_factory", "location": "TAIWAN" },
        { "nsid": "7816211@N07", "username": "zemotion", "iconserver": "3796", "iconfarm": 4, "ignored": 0, "rev_ignored": 0, "realname": "Jingna Zhang", "friend": 0, "family": 0, "path_alias": "zemotion", "location": "New York, USA" },
        { "nsid": "37464761@N07", "username": "zhongphoto", "iconserver": "3628", "iconfarm": 4, "ignored": 0, "rev_ignored": 0, "realname": "T. Pham's", "friend": 0, "family": 0, "path_alias": "zhongphoto", "location": "" },
        { "nsid": "7475777@N06", "username": "zikay's photography from bizinsz.net", "iconserver": "2811", "iconfarm": 3, "ignored": 0, "rev_ignored": 0, "realname": "Ken Zhao", "friend": 0, "family": 0, "path_alias": "zikay", "location": "Shenzhen, China" },
        { "nsid": "127783190@N08", "username": "zingvnn1", "iconserver": 0, "iconfarm": 0, "ignored": 0, "rev_ignored": 0, "realname": "zing vn", "friend": 0, "family": 0, "path_alias": "", "location": "" },
        { "nsid": "154479415@N05", "username": "zoxe159", "iconserver": 0, "iconfarm": 0, "ignored": 0, "rev_ignored": 0, "realname": "zoxe159", "friend": 0, "family": 0, "path_alias": "", "location": "" },
        { "nsid": "35864273@N07", "username": "іsa", "iconserver": "3649", "iconfarm": 4, "ignored": 0, "rev_ignored": 0, "realname": "", "friend": 0, "family": 0, "path_alias": "isalighting", "location": "Hà Nội, Việt Nam" },
        { "nsid": "7910793@N02", "username": "がじゅ", "iconserver": "65535", "iconfarm": 66, "ignored": 0, "rev_ignored": 0, "realname": "Gaju Westwood", "friend": 0, "family": 0, "path_alias": "gajux", "location": "Yokohama, Japan" },
        { "nsid": "95014847@N07", "username": "一日一", "iconserver": "4584", "iconfarm": 5, "ignored": 0, "rev_ignored": 0, "realname": "邱亘", "friend": 0, "family": 0, "path_alias": "phchiu", "location": "" },
        { "nsid": "19397026@N00", "username": "凱撒之鷹", "iconserver": "7019", "iconfarm": 8, "ignored": 0, "rev_ignored": 0, "realname": "", "friend": 0, "family": 0, "path_alias": "caesarh", "location": "Taipei, Taiwan" },
        { "nsid": "7178701@N02", "username": "勞動的小網管", "iconserver": "222", "iconfarm": 1, "ignored": 0, "rev_ignored": 0, "realname": "Lee Tzung-Tze", "friend": 0, "family": 0, "path_alias": "tzung-tze", "location": "" },
        { "nsid": "62785083@N06", "username": "半涉濁流", "iconserver": 0, "iconfarm": 0, "ignored": 0, "rev_ignored": 0, "realname": "", "friend": 0, "family": 0, "path_alias": "", "location": "" },
        { "nsid": "71762029@N06", "username": "吳卡斯", "iconserver": "7642", "iconfarm": 8, "ignored": 0, "rev_ignored": 0, "realname": "cas Lu", "friend": 0, "family": 0, "path_alias": "jojo06072003", "location": "" },
        { "nsid": "97997550@N02", "username": "周同", "iconserver": "7904", "iconfarm": 8, "ignored": 0, "rev_ignored": 0, "realname": "", "friend": 0, "family": 0, "path_alias": "tung-9", "location": "" },
        { "nsid": "142958215@N04", "username": "周杰人", "iconserver": "7568", "iconfarm": 8, "ignored": 0, "rev_ignored": 0, "realname": "杰克 周", "friend": 0, "family": 0, "path_alias": "hellojackgogogo", "location": "台北, 台灣" },
        { "nsid": "105621314@N04", "username": "夢行者攝影工作室", "iconserver": "2838", "iconfarm": 3, "ignored": 0, "rev_ignored": 0, "realname": "", "friend": 0, "family": 0, "path_alias": "moca651202", "location": "台南, 台灣" },
        { "nsid": "154983192@N06", "username": "女神社", "iconserver": "65535", "iconfarm": 66, "ignored": 0, "rev_ignored": 0, "realname": "女神 社", "friend": 0, "family": 0, "path_alias": "nshens" },
        { "nsid": "114226419@N08", "username": "婚攝 Li蒞 | 婚禮記錄|婚禮攝影", "iconserver": "808", "iconfarm": 1, "ignored": 0, "rev_ignored": 0, "realname": "LiLi 蒞", "friend": 0, "family": 0, "path_alias": "lili0801", "location": "" },
        { "nsid": "65910051@N07", "username": "婚攝阿賢", "iconserver": "755", "iconfarm": 1, "ignored": 0, "rev_ignored": 0, "realname": "光點攝影Studio 婚攝阿賢", "friend": 0, "family": 0, "path_alias": "kuang-tian", "location": "桃園, 台灣\/桃園市" },
        { "nsid": "129097802@N06", "username": "孫果果", "iconserver": "7493", "iconfarm": 8, "ignored": 0, "rev_ignored": 0, "realname": "孫 友萱", "friend": 0, "family": 0, "path_alias": "guo0418", "location": "" },
        { "nsid": "95325432@N06", "username": "小林姦餅", "iconserver": "435", "iconfarm": 1, "ignored": 0, "rev_ignored": 0, "realname": "Eason Lin", "friend": 0, "family": 0, "path_alias": "easonlin1113", "location": "" },
        { "nsid": "100237731@N05", "username": "小清新攝影師", "iconserver": "7327", "iconfarm": 8, "ignored": 0, "rev_ignored": 0, "realname": "", "friend": 0, "family": 0, "path_alias": "ru_lin_photography" },
        { "nsid": "8864499@N06", "username": "就是愛拍照-蔡蔡", "iconserver": "1170", "iconfarm": 2, "ignored": 0, "rev_ignored": 0, "realname": "蔡蔡", "friend": 0, "family": 0, "path_alias": "kevints", "location": "" },
        { "nsid": "82192130@N05", "username": "左 撇子", "iconserver": "5516", "iconfarm": 6, "ignored": 0, "rev_ignored": 0, "realname": "Ja Shang Tang", "friend": 0, "family": 0, "path_alias": "tang1975", "location": "Taipei, TAIWAN" },
        { "nsid": "145084116@N06", "username": "張之姸 AireL.", "iconserver": "5332", "iconfarm": 6, "ignored": 0, "rev_ignored": 0, "realname": "熒庭 張", "friend": 0, "family": 0, "path_alias": "", "location": "" },
        { "nsid": "143411264@N06", "username": "德丸．tokumaru", "iconserver": "8407", "iconfarm": 9, "ignored": 0, "rev_ignored": 0, "realname": "德丸 tokumaru", "friend": 0, "family": 0, "path_alias": "", "location": "台湾 | 台北" },
        { "nsid": "68401197@N03", "username": "我的微單.我的新視界-林志賢", "iconserver": "868", "iconfarm": 1, "ignored": 0, "rev_ignored": 0, "realname": "", "friend": 0, "family": 0, "path_alias": "cnc640219", "location": "Taiwan" },
        { "nsid": "9519915@N08", "username": "星光奈奈", "iconserver": "5614", "iconfarm": 6, "ignored": 0, "rev_ignored": 0, "realname": "星光 奈奈", "friend": 0, "family": 0, "path_alias": "5inanaphoto", "location": "桃園縣, 國內" },
        { "nsid": "144848426@N07", "username": "李星龍美麗記", "iconserver": "7388", "iconfarm": 8, "ignored": 0, "rev_ignored": 0, "realname": "StarDragon Lee", "friend": 0, "family": 0, "path_alias": "stardragonlee", "location": "Beijing, China" },
        { "nsid": "146514517@N08", "username": "林筱貝(Hidden)", "iconserver": "1939", "iconfarm": 2, "ignored": 0, "rev_ignored": 0, "realname": "筱貝 林", "friend": 0, "family": 0, "path_alias": "littlebay520", "location": "台中市" },
        { "nsid": "151972813@N07", "username": "猩猩之我心", "iconserver": "4420", "iconfarm": 5, "ignored": 0, "rev_ignored": 0, "realname": "", "friend": 0, "family": 0, "path_alias": "" },
        { "nsid": "164618150@N04", "username": "王牧", "iconserver": 0, "iconfarm": 0, "ignored": 0, "rev_ignored": 0, "realname": "", "friend": 0, "family": 0, "path_alias": "" },
        { "nsid": "24906811@N04", "username": "玩美攝影器材有限公司", "iconserver": "2119", "iconfarm": 3, "ignored": 0, "rev_ignored": 0, "realname": "李訓", "friend": 0, "family": 0, "path_alias": "leehsun", "location": "高雄市, 台灣Taiwan" },
        { "nsid": "157822985@N04", "username": "私領域", "iconserver": "4360", "iconfarm": 5, "ignored": 0, "rev_ignored": 0, "realname": "私領域", "friend": 0, "family": 0, "path_alias": "", "location": "台北, 台灣" },
        { "nsid": "12109333@N02", "username": "簡基烟", "iconserver": "7903", "iconfarm": 8, "ignored": 0, "rev_ignored": 0, "realname": "基煙 簡", "friend": 0, "family": 0, "path_alias": "", "location": "台灣\/桃園" },
        { "nsid": "29013093@N06", "username": "紅刺蝟", "iconserver": "3733", "iconfarm": 4, "ignored": 0, "rev_ignored": 0, "realname": "紅 刺蝟", "friend": 0, "family": 0, "path_alias": "redporcupine", "location": "" },
        { "nsid": "130416661@N06", "username": "紅刺蝟 REDPORCUPINE", "iconserver": "8877", "iconfarm": 9, "ignored": 0, "rev_ignored": 0, "realname": "紅刺蝟 REDPORCUPINE", "friend": 0, "family": 0, "path_alias": "", "location": "" },
        { "nsid": "111204286@N06", "username": "素人誌", "iconserver": "65535", "iconfarm": 66, "ignored": 0, "rev_ignored": 0, "realname": "素人誌", "friend": 0, "family": 0, "path_alias": "", "location": "" },
        { "nsid": "57364084@N07", "username": "自由SEXPoier哥", "iconserver": "7025", "iconfarm": 8, "ignored": 0, "rev_ignored": 0, "realname": "", "friend": 0, "family": 0, "path_alias": "", "location": "" },
        { "nsid": "93969513@N04", "username": "薛豆", "iconserver": "4209", "iconfarm": 5, "ignored": 0, "rev_ignored": 0, "realname": "", "friend": 0, "family": 0, "path_alias": "phototaximan", "location": "台中, 台灣" },
        { "nsid": "69226227@N03", "username": "藤原克也の撮影写真", "iconserver": "6109", "iconfarm": 7, "ignored": 0, "rev_ignored": 0, "realname": "藤原 克也", "friend": 0, "family": 0, "path_alias": "fujiwarakatsuya", "location": "" },
        { "nsid": "54933736@N08", "username": "螢幕花到", "iconserver": "7357", "iconfarm": 8, "ignored": 0, "rev_ignored": 0, "realname": "", "friend": 0, "family": 0, "path_alias": "cat0427", "location": "" },
        { "nsid": "156507300@N02", "username": "衛斯 LEE", "iconserver": 0, "iconfarm": 0, "ignored": 0, "rev_ignored": 0, "realname": "曉風 李", "friend": 0, "family": 0, "path_alias": "", "location": "" },
        { "nsid": "50613119@N02", "username": "郁雯兒", "iconserver": "7544", "iconfarm": 8, "ignored": 0, "rev_ignored": 0, "realname": "", "friend": 0, "family": 0, "path_alias": "nininita" },
        { "nsid": "36638309@N00", "username": "酷子", "iconserver": "8481", "iconfarm": 9, "ignored": 0, "rev_ignored": 0, "realname": "新宇 苏", "friend": 0, "family": 0, "path_alias": "reallove999", "location": "shanghai, china" },
        { "nsid": "110081544@N07", "username": "阿B攝影", "iconserver": "4241", "iconfarm": 5, "ignored": 0, "rev_ignored": 0, "realname": "Kong Bee", "friend": 0, "family": 0, "path_alias": "qq4479971", "location": "Hong Kong" },
        { "nsid": "32794584@N06", "username": "阿銘太郎", "iconserver": "7205", "iconfarm": 8, "ignored": 0, "rev_ignored": 0, "realname": "", "friend": 0, "family": 0, "path_alias": "", "location": "" },
        { "nsid": "58557996@N04", "username": "陳伸維", "iconserver": "2924", "iconfarm": 3, "ignored": 0, "rev_ignored": 0, "realname": "", "friend": 0, "family": 0, "path_alias": "shenweichen", "location": "" },
        { "nsid": "129670022@N05", "username": "魁影", "iconserver": "4591", "iconfarm": 5, "ignored": 0, "rev_ignored": 0, "realname": "魁影", "friend": 0, "family": 0, "path_alias": "", "location": "" },
        { "nsid": "96247008@N08", "username": "ＭａＸ", "iconserver": "65535", "iconfarm": 66, "ignored": 0, "rev_ignored": 0, "realname": "", "friend": 0, "family": 0, "path_alias": "mini_919", "location": "" }
    ] }, "stat": "ok" }
