{ "photos": { "page": 3, "pages": 3, "perpage": "150", "total": "358",
    "photo": [
        { "id": "26151108302", "owner": "94529704@N02", "secret": "884f71acf8", "server": "1446", "farm": 2, "title": "IMG_5598", "ispublic": 0, "isfriend": 0, "isfamily": 0 },
        { "id": "25970686300", "owner": "94529704@N02", "secret": "d79ecb8cf2", "server": "1548", "farm": 2, "title": "IMG_5566", "ispublic": 0, "isfriend": 0, "isfamily": 0 },
        { "id": "25638789814", "owner": "94529704@N02", "secret": "6e6a4286b9", "server": "1449", "farm": 2, "title": "IMG_5527", "ispublic": 0, "isfriend": 0, "isfamily": 0 },
        { "id": "26243560945", "owner": "94529704@N02", "secret": "57ce83c34b", "server": "1581", "farm": 2, "title": "IMG_5519", "ispublic": 0, "isfriend": 0, "isfamily": 0 },
        { "id": "25638790684", "owner": "94529704@N02", "secret": "b5cc696180", "server": "1476", "farm": 2, "title": "IMG_5354", "ispublic": 0, "isfriend": 0, "isfamily": 0 },
        { "id": "25640884323", "owner": "94529704@N02", "secret": "0275bc6316", "server": "1679", "farm": 2, "title": "IMG_5353", "ispublic": 0, "isfriend": 0, "isfamily": 0 },
        { "id": "25638792384", "owner": "94529704@N02", "secret": "eb1e1e18f9", "server": "1641", "farm": 2, "title": "IMG_5334", "ispublic": 0, "isfriend": 0, "isfamily": 0 },
        { "id": "25638792634", "owner": "94529704@N02", "secret": "f05445e92f", "server": "1470", "farm": 2, "title": "IMG_5305", "ispublic": 0, "isfriend": 0, "isfamily": 0 },
        { "id": "26243563315", "owner": "94529704@N02", "secret": "27451a2cc2", "server": "1450", "farm": 2, "title": "IMG_5089", "ispublic": 0, "isfriend": 0, "isfamily": 0 },
        { "id": "24403071126", "owner": "94529704@N02", "secret": "5fff02c728", "server": "1696", "farm": 2, "title": "IMG_7327", "ispublic": 0, "isfriend": 0, "isfamily": 0 },
        { "id": "23802467253", "owner": "94529704@N02", "secret": "06405ecd39", "server": "1661", "farm": 2, "title": "IMG_7320", "ispublic": 0, "isfriend": 0, "isfamily": 0 },
        { "id": "24403072676", "owner": "94529704@N02", "secret": "85bf938690", "server": "1477", "farm": 2, "title": "IMG_7299", "ispublic": 0, "isfriend": 0, "isfamily": 0 },
        { "id": "23802468773", "owner": "94529704@N02", "secret": "9b7069c131", "server": "1717", "farm": 2, "title": "IMG_7289", "ispublic": 0, "isfriend": 0, "isfamily": 0 },
        { "id": "24061467849", "owner": "94529704@N02", "secret": "c69200785f", "server": "1606", "farm": 2, "title": "IMG_7271", "ispublic": 0, "isfriend": 0, "isfamily": 0 },
        { "id": "24061468299", "owner": "94529704@N02", "secret": "6e924e1c6f", "server": "1500", "farm": 2, "title": "IMG_7266", "ispublic": 0, "isfriend": 0, "isfamily": 0 },
        { "id": "24320997772", "owner": "94529704@N02", "secret": "b738f825f5", "server": "1520", "farm": 2, "title": "IMG_7265", "ispublic": 0, "isfriend": 0, "isfamily": 0 },
        { "id": "24133660840", "owner": "94529704@N02", "secret": "0c25d88126", "server": "1505", "farm": 2, "title": "IMG_7225", "ispublic": 0, "isfriend": 0, "isfamily": 0 },
        { "id": "24346807791", "owner": "94529704@N02", "secret": "6e80ec6d49", "server": "1636", "farm": 2, "title": "IMG_7159", "ispublic": 0, "isfriend": 0, "isfamily": 0 },
        { "id": "23802470833", "owner": "94529704@N02", "secret": "990db0221c", "server": "1682", "farm": 2, "title": "IMG_7148", "ispublic": 0, "isfriend": 0, "isfamily": 0 },
        { "id": "24403076016", "owner": "94529704@N02", "secret": "aa907df193", "server": "1690", "farm": 2, "title": "IMG_7123", "ispublic": 0, "isfriend": 0, "isfamily": 0 },
        { "id": "23801072194", "owner": "94529704@N02", "secret": "2c23416feb", "server": "1482", "farm": 2, "title": "IMG_7026", "ispublic": 0, "isfriend": 0, "isfamily": 0 },
        { "id": "24133663120", "owner": "94529704@N02", "secret": "431204f996", "server": "1511", "farm": 2, "title": "IMG_6965", "ispublic": 0, "isfriend": 0, "isfamily": 0 },
        { "id": "24403077016", "owner": "94529704@N02", "secret": "2ae1caf828", "server": "1546", "farm": 2, "title": "IMG_6955", "ispublic": 0, "isfriend": 0, "isfamily": 0 },
        { "id": "24429268815", "owner": "94529704@N02", "secret": "2664d8da5e", "server": "1561", "farm": 2, "title": "IMG_6949", "ispublic": 0, "isfriend": 0, "isfamily": 0 },
        { "id": "24403078346", "owner": "94529704@N02", "secret": "aec3b3236b", "server": "1687", "farm": 2, "title": "IMG_6942", "ispublic": 0, "isfriend": 0, "isfamily": 0 },
        { "id": "24346811901", "owner": "94529704@N02", "secret": "536571e42b", "server": "1498", "farm": 2, "title": "IMG_6869", "ispublic": 0, "isfriend": 0, "isfamily": 0 },
        { "id": "24429271035", "owner": "94529704@N02", "secret": "4e5b59c05d", "server": "1648", "farm": 2, "title": "IMG_6859", "ispublic": 0, "isfriend": 0, "isfamily": 0 },
        { "id": "24133666750", "owner": "94529704@N02", "secret": "0d79b5faa3", "server": "1691", "farm": 2, "title": "IMG_6856", "ispublic": 0, "isfriend": 0, "isfamily": 0 },
        { "id": "24403080956", "owner": "94529704@N02", "secret": "531f6f0462", "server": "1695", "farm": 2, "title": "IMG_6843", "ispublic": 0, "isfriend": 0, "isfamily": 0 },
        { "id": "24321005652", "owner": "94529704@N02", "secret": "93d3c6fbac", "server": "1601", "farm": 2, "title": "IMG_6839", "ispublic": 0, "isfriend": 0, "isfamily": 0 },
        { "id": "24429273465", "owner": "94529704@N02", "secret": "3d9c9fc729", "server": "1648", "farm": 2, "title": "IMG_6838", "ispublic": 0, "isfriend": 0, "isfamily": 0 },
        { "id": "24429273805", "owner": "94529704@N02", "secret": "7d13d88bb0", "server": "1484", "farm": 2, "title": "IMG_6831", "ispublic": 0, "isfriend": 0, "isfamily": 0 },
        { "id": "23801083414", "owner": "94529704@N02", "secret": "6ec773f48b", "server": "1685", "farm": 2, "title": "IMG_6825", "ispublic": 0, "isfriend": 0, "isfamily": 0 },
        { "id": "24321007912", "owner": "94529704@N02", "secret": "7191225a7e", "server": "1481", "farm": 2, "title": "IMG_6819", "ispublic": 0, "isfriend": 0, "isfamily": 0 },
        { "id": "24429275835", "owner": "94529704@N02", "secret": "f4f6f3cf2d", "server": "1453", "farm": 2, "title": "IMG_6808", "ispublic": 0, "isfriend": 0, "isfamily": 0 },
        { "id": "24321008982", "owner": "94529704@N02", "secret": "a97b820194", "server": "1654", "farm": 2, "title": "IMG_6798", "ispublic": 0, "isfriend": 0, "isfamily": 0 },
        { "id": "23800976134", "owner": "94529704@N02", "secret": "a78fab093e", "server": "1466", "farm": 2, "title": "IMG_6450", "ispublic": 1, "isfriend": 0, "isfamily": 0 },
        { "id": "24429168995", "owner": "94529704@N02", "secret": "abe0cb294f", "server": "1463", "farm": 2, "title": "IMG_6449", "ispublic": 1, "isfriend": 0, "isfamily": 0 },
        { "id": "24061372059", "owner": "94529704@N02", "secret": "08f719745b", "server": "1619", "farm": 2, "title": "IMG_6440", "ispublic": 1, "isfriend": 0, "isfamily": 0 },
        { "id": "24346707971", "owner": "94529704@N02", "secret": "e14c1ae427", "server": "1642", "farm": 2, "title": "IMG_6419", "ispublic": 1, "isfriend": 0, "isfamily": 0 },
        { "id": "24061371889", "owner": "94529704@N02", "secret": "050dabe8cb", "server": "1664", "farm": 2, "title": "IMG_6414", "ispublic": 1, "isfriend": 0, "isfamily": 0 },
        { "id": "24402976306", "owner": "94529704@N02", "secret": "e6ebc779dc", "server": "1578", "farm": 2, "title": "IMG_6401", "ispublic": 1, "isfriend": 0, "isfamily": 0 },
        { "id": "24133563860", "owner": "94529704@N02", "secret": "2377213c37", "server": "1720", "farm": 2, "title": "IMG_6390", "ispublic": 1, "isfriend": 0, "isfamily": 0 },
        { "id": "23800977694", "owner": "94529704@N02", "secret": "aab5e3b426", "server": "1699", "farm": 2, "title": "IMG_6300", "ispublic": 1, "isfriend": 0, "isfamily": 0 },
        { "id": "24402977046", "owner": "94529704@N02", "secret": "c47d3770ee", "server": "1467", "farm": 2, "title": "IMG_6264", "ispublic": 1, "isfriend": 0, "isfamily": 0 },
        { "id": "24133564480", "owner": "94529704@N02", "secret": "f299e14eff", "server": "1449", "farm": 2, "title": "IMG_6262", "ispublic": 1, "isfriend": 0, "isfamily": 0 },
        { "id": "24402977676", "owner": "94529704@N02", "secret": "4160104a19", "server": "1595", "farm": 2, "title": "IMG_6233", "ispublic": 1, "isfriend": 0, "isfamily": 0 },
        { "id": "24061374059", "owner": "94529704@N02", "secret": "95a4113cd3", "server": "1661", "farm": 2, "title": "IMG_5899-2", "ispublic": 1, "isfriend": 0, "isfamily": 0 },
        { "id": "23800979454", "owner": "94529704@N02", "secret": "8603876d57", "server": "1462", "farm": 2, "title": "IMG_5899", "ispublic": 1, "isfriend": 0, "isfamily": 0 },
        { "id": "24320903082", "owner": "94529704@N02", "secret": "ee58c6e716", "server": "1654", "farm": 2, "title": "IMG_5896", "ispublic": 1, "isfriend": 0, "isfamily": 0 },
        { "id": "24346708061", "owner": "94529704@N02", "secret": "9f81bf9976", "server": "1571", "farm": 2, "title": "IMG_5855", "ispublic": 1, "isfriend": 0, "isfamily": 0 },
        { "id": "24061375059", "owner": "94529704@N02", "secret": "af3243cd34", "server": "1681", "farm": 2, "title": "IMG_5853", "ispublic": 1, "isfriend": 0, "isfamily": 0 },
        { "id": "23800980474", "owner": "94529704@N02", "secret": "08037da909", "server": "1677", "farm": 2, "title": "IMG_5846", "ispublic": 1, "isfriend": 0, "isfamily": 0 },
        { "id": "21105289326", "owner": "94529704@N02", "secret": "e9f09a44b8", "server": "5785", "farm": 6, "title": "IMG_1156", "ispublic": 1, "isfriend": 0, "isfamily": 0 },
        { "id": "20547841198", "owner": "94529704@N02", "secret": "9e37d32d7f", "server": "5744", "farm": 6, "title": "IMG_8624", "ispublic": 1, "isfriend": 0, "isfamily": 0 },
        { "id": "20735591045", "owner": "94529704@N02", "secret": "304763dff4", "server": "5702", "farm": 6, "title": "IMG_945100_1", "ispublic": 1, "isfriend": 0, "isfamily": 0 },
        { "id": "20548816589", "owner": "94529704@N02", "secret": "82293ef5ce", "server": "581", "farm": 1, "title": "IMG_9112", "ispublic": 1, "isfriend": 0, "isfamily": 0 },
        { "id": "19938177274", "owner": "94529704@N02", "secret": "a8f0fdd287", "server": "5702", "farm": 6, "title": "IMG_2844", "ispublic": 1, "isfriend": 0, "isfamily": 0 }
    ] }, "stat": "ok" }
