{ "photos": { "page": 2, "pages": 3, "perpage": "150", "total": "358",
    "photo": [
        { "id": "34359962765", "owner": "94529704@N02", "secret": "348fcee7fc", "server": "2883", "farm": 3, "title": "YX5A9886", "ispublic": 1, "isfriend": 0, "isfamily": 0 },
        { "id": "34359963005", "owner": "94529704@N02", "secret": "5d81b96d01", "server": "4164", "farm": 5, "title": "YX5A9879", "ispublic": 1, "isfriend": 0, "isfamily": 0 },
        { "id": "34359963175", "owner": "94529704@N02", "secret": "3143b34bf3", "server": "2807", "farm": 3, "title": "YX5A9866", "ispublic": 1, "isfriend": 0, "isfamily": 0 },
        { "id": "34359963435", "owner": "94529704@N02", "secret": "108cdde8cb", "server": "2808", "farm": 3, "title": "YX5A9842", "ispublic": 1, "isfriend": 0, "isfamily": 0 },
        { "id": "33975619020", "owner": "94529704@N02", "secret": "cef8a00e66", "server": "4194", "farm": 5, "title": "YX5A9727", "ispublic": 1, "isfriend": 0, "isfamily": 0 },
        { "id": "34359963525", "owner": "94529704@N02", "secret": "c82f28323f", "server": "2890", "farm": 3, "title": "YX5A9700", "ispublic": 1, "isfriend": 0, "isfamily": 0 },
        { "id": "33975622980", "owner": "94529704@N02", "secret": "3a12509da7", "server": "2890", "farm": 3, "title": "YX5A0173", "ispublic": 1, "isfriend": 0, "isfamily": 0 },
        { "id": "32293558423", "owner": "94529704@N02", "secret": "a0dda27489", "server": "664", "farm": 1, "title": "IMG_9861", "ispublic": 1, "isfriend": 0, "isfamily": 0 },
        { "id": "33067162896", "owner": "94529704@N02", "secret": "18bc8ca2f6", "server": "772", "farm": 1, "title": "IMG_9855", "ispublic": 1, "isfriend": 0, "isfamily": 0 },
        { "id": "32293560013", "owner": "94529704@N02", "secret": "0867c25aaa", "server": "2854", "farm": 3, "title": "IMG_9732", "ispublic": 1, "isfriend": 0, "isfamily": 0 },
        { "id": "32043215933", "owner": "94529704@N02", "secret": "48029fa67a", "server": "3807", "farm": 4, "title": "_MG_1101", "ispublic": 1, "isfriend": 0, "isfamily": 0 },
        { "id": "32043217793", "owner": "94529704@N02", "secret": "5ed046c43f", "server": "2357", "farm": 3, "title": "_MG_1093-2", "ispublic": 1, "isfriend": 0, "isfamily": 0 },
        { "id": "32445888941", "owner": "94529704@N02", "secret": "9fd0f60d6a", "server": "432", "farm": 1, "title": "IMG_7771", "ispublic": 1, "isfriend": 0, "isfamily": 0 },
        { "id": "32415645542", "owner": "94529704@N02", "secret": "447db5cd8a", "server": "384", "farm": 1, "title": "IMG_7769", "ispublic": 1, "isfriend": 0, "isfamily": 0 },
        { "id": "30420698244", "owner": "94529704@N02", "secret": "1c8992551f", "server": "5614", "farm": 6, "title": "_MG_0445", "ispublic": 1, "isfriend": 0, "isfamily": 0 },
        { "id": "30420699914", "owner": "94529704@N02", "secret": "0100c836c0", "server": "5795", "farm": 6, "title": "_MG_0379", "ispublic": 1, "isfriend": 0, "isfamily": 0 },
        { "id": "30420701054", "owner": "94529704@N02", "secret": "88b38157e6", "server": "5464", "farm": 6, "title": "_MG_0324", "ispublic": 1, "isfriend": 0, "isfamily": 0 },
        { "id": "30420702054", "owner": "94529704@N02", "secret": "afe86e9245", "server": "5676", "farm": 6, "title": "_MG_0192", "ispublic": 1, "isfriend": 0, "isfamily": 0 },
        { "id": "30420703364", "owner": "94529704@N02", "secret": "3cd7e14946", "server": "5763", "farm": 6, "title": "_MG_0187", "ispublic": 1, "isfriend": 0, "isfamily": 0 },
        { "id": "30420705564", "owner": "94529704@N02", "secret": "cff5f52af2", "server": "5741", "farm": 6, "title": "_MG_0174", "ispublic": 1, "isfriend": 0, "isfamily": 0 },
        { "id": "31205829846", "owner": "94529704@N02", "secret": "4e2ec824a9", "server": "5583", "farm": 6, "title": "IMG_4401", "ispublic": 1, "isfriend": 0, "isfamily": 0 },
        { "id": "31205833516", "owner": "94529704@N02", "secret": "f607e04279", "server": "5334", "farm": 6, "title": "IMG_4382", "ispublic": 1, "isfriend": 0, "isfamily": 0 },
        { "id": "31205834496", "owner": "94529704@N02", "secret": "d3de4fa1d2", "server": "5458", "farm": 6, "title": "IMG_4355", "ispublic": 1, "isfriend": 0, "isfamily": 0 },
        { "id": "31205835556", "owner": "94529704@N02", "secret": "fc964e7767", "server": "5808", "farm": 6, "title": "IMG_4350", "ispublic": 1, "isfriend": 0, "isfamily": 0 },
        { "id": "31205836496", "owner": "94529704@N02", "secret": "65762384bf", "server": "5725", "farm": 6, "title": "IMG_4339", "ispublic": 1, "isfriend": 0, "isfamily": 0 },
        { "id": "31205838076", "owner": "94529704@N02", "secret": "cb62a2e818", "server": "5699", "farm": 6, "title": "IMG_4333", "ispublic": 1, "isfriend": 0, "isfamily": 0 },
        { "id": "31205839296", "owner": "94529704@N02", "secret": "efbc969464", "server": "5343", "farm": 6, "title": "IMG_4328", "ispublic": 1, "isfriend": 0, "isfamily": 0 },
        { "id": "30420581164", "owner": "94529704@N02", "secret": "25de985cc7", "server": "5574", "farm": 6, "title": "IMG_4324", "ispublic": 1, "isfriend": 0, "isfamily": 0 },
        { "id": "30420581654", "owner": "94529704@N02", "secret": "e404f71ed8", "server": "5647", "farm": 6, "title": "IMG_4314", "ispublic": 1, "isfriend": 0, "isfamily": 0 },
        { "id": "30420582424", "owner": "94529704@N02", "secret": "a46be29193", "server": "5671", "farm": 6, "title": "IMG_4307", "ispublic": 1, "isfriend": 0, "isfamily": 0 },
        { "id": "30420583254", "owner": "94529704@N02", "secret": "3d8c512f79", "server": "5737", "farm": 6, "title": "IMG_4301", "ispublic": 1, "isfriend": 0, "isfamily": 0 },
        { "id": "30420584264", "owner": "94529704@N02", "secret": "67562392de", "server": "5490", "farm": 6, "title": "IMG_4277", "ispublic": 1, "isfriend": 0, "isfamily": 0 },
        { "id": "31205832136", "owner": "94529704@N02", "secret": "5ba22c3736", "server": "5824", "farm": 6, "title": "IMG_4274", "ispublic": 1, "isfriend": 0, "isfamily": 0 },
        { "id": "30420584894", "owner": "94529704@N02", "secret": "e019b2f6da", "server": "5626", "farm": 6, "title": "IMG_4266", "ispublic": 1, "isfriend": 0, "isfamily": 0 },
        { "id": "31097626932", "owner": "94529704@N02", "secret": "2a25629a21", "server": "5800", "farm": 6, "title": "_MG_2690", "ispublic": 1, "isfriend": 0, "isfamily": 0 },
        { "id": "31205563706", "owner": "94529704@N02", "secret": "0c3bece943", "server": "5766", "farm": 6, "title": "_MG_2675", "ispublic": 1, "isfriend": 0, "isfamily": 0 },
        { "id": "30420348194", "owner": "94529704@N02", "secret": "86335e75a5", "server": "5609", "farm": 6, "title": "_MG_2657", "ispublic": 1, "isfriend": 0, "isfamily": 0 },
        { "id": "30420349874", "owner": "94529704@N02", "secret": "05ac3a755b", "server": "5525", "farm": 6, "title": "_MG_2643", "ispublic": 1, "isfriend": 0, "isfamily": 0 },
        { "id": "28981216794", "owner": "94529704@N02", "secret": "0732e974a4", "server": "8313", "farm": 9, "title": "IMG_1518", "ispublic": 1, "isfriend": 0, "isfamily": 0 },
        { "id": "29525913181", "owner": "94529704@N02", "secret": "dd4aba80f2", "server": "8175", "farm": 9, "title": "IMG_1495-2", "ispublic": 1, "isfriend": 0, "isfamily": 0 },
        { "id": "28981220264", "owner": "94529704@N02", "secret": "d63d22ea9e", "server": "8734", "farm": 9, "title": "IMG_1495", "ispublic": 1, "isfriend": 0, "isfamily": 0 },
        { "id": "29496549542", "owner": "94529704@N02", "secret": "f580e11d78", "server": "8068", "farm": 9, "title": "IMG_1487", "ispublic": 1, "isfriend": 0, "isfamily": 0 },
        { "id": "29525915491", "owner": "94529704@N02", "secret": "551c0f6def", "server": "8299", "farm": 9, "title": "IMG_1460", "ispublic": 1, "isfriend": 0, "isfamily": 0 },
        { "id": "29496551592", "owner": "94529704@N02", "secret": "95397a2809", "server": "8209", "farm": 9, "title": "IMG_1458", "ispublic": 1, "isfriend": 0, "isfamily": 0 },
        { "id": "29525917751", "owner": "94529704@N02", "secret": "3bc5af1b5b", "server": "7751", "farm": 8, "title": "IMG_1444", "ispublic": 1, "isfriend": 0, "isfamily": 0 },
        { "id": "29496555082", "owner": "94529704@N02", "secret": "9f7d888c6f", "server": "8651", "farm": 9, "title": "IMG_1435", "ispublic": 1, "isfriend": 0, "isfamily": 0 },
        { "id": "29496557102", "owner": "94529704@N02", "secret": "d5c1a13c07", "server": "8040", "farm": 9, "title": "IMG_1433", "ispublic": 1, "isfriend": 0, "isfamily": 0 },
        { "id": "29496559742", "owner": "94529704@N02", "secret": "6e6e229141", "server": "8269", "farm": 9, "title": "IMG_1419", "ispublic": 1, "isfriend": 0, "isfamily": 0 },
        { "id": "29496683542", "owner": "94529704@N02", "secret": "5db8e04560", "server": "8216", "farm": 9, "title": "IMG_1334", "ispublic": 1, "isfriend": 0, "isfamily": 0 },
        { "id": "29316418170", "owner": "94529704@N02", "secret": "8174b8e00d", "server": "8330", "farm": 9, "title": "IMG_1330-4_resize", "ispublic": 1, "isfriend": 0, "isfamily": 0 },
        { "id": "29525924591", "owner": "94529704@N02", "secret": "388abbea92", "server": "8466", "farm": 9, "title": "IMG_1330-4", "ispublic": 1, "isfriend": 0, "isfamily": 0 },
        { "id": "29496563602", "owner": "94529704@N02", "secret": "34470c9220", "server": "8303", "farm": 9, "title": "IMG_1330-3", "ispublic": 1, "isfriend": 0, "isfamily": 0 },
        { "id": "29525927361", "owner": "94529704@N02", "secret": "e94e7955f9", "server": "8187", "farm": 9, "title": "IMG_1330-2", "ispublic": 1, "isfriend": 0, "isfamily": 0 },
        { "id": "29316418850", "owner": "94529704@N02", "secret": "3ae00ee1b2", "server": "8885", "farm": 9, "title": "IMG_1330", "ispublic": 1, "isfriend": 0, "isfamily": 0 },
        { "id": "28981276924", "owner": "94529704@N02", "secret": "ddbae02f02", "server": "8257", "farm": 9, "title": "IMG_1324", "ispublic": 1, "isfriend": 0, "isfamily": 0 },
        { "id": "28981278324", "owner": "94529704@N02", "secret": "c0afe28a1b", "server": "8350", "farm": 9, "title": "IMG_1281", "ispublic": 1, "isfriend": 0, "isfamily": 0 },
        { "id": "29316424470", "owner": "94529704@N02", "secret": "9af62931e0", "server": "8423", "farm": 9, "title": "IMG_1273", "ispublic": 1, "isfriend": 0, "isfamily": 0 },
        { "id": "29496565702", "owner": "94529704@N02", "secret": "33ccafd805", "server": "8054", "farm": 9, "title": "IMG_1256", "ispublic": 1, "isfriend": 0, "isfamily": 0 },
        { "id": "29525928141", "owner": "94529704@N02", "secret": "a25e77cfbd", "server": "8817", "farm": 9, "title": "IMG_1253", "ispublic": 1, "isfriend": 0, "isfamily": 0 },
        { "id": "29496566592", "owner": "94529704@N02", "secret": "ba7cdaa1bf", "server": "8007", "farm": 9, "title": "IMG_1250", "ispublic": 1, "isfriend": 0, "isfamily": 0 },
        { "id": "28981281004", "owner": "94529704@N02", "secret": "de45fc1c73", "server": "8037", "farm": 9, "title": "IMG_1245", "ispublic": 1, "isfriend": 0, "isfamily": 0 },
        { "id": "29525975421", "owner": "94529704@N02", "secret": "5ab11e1ec5", "server": "8795", "farm": 9, "title": "IMG_1226-2", "ispublic": 1, "isfriend": 0, "isfamily": 0 },
        { "id": "28981282944", "owner": "94529704@N02", "secret": "c6b584f506", "server": "8473", "farm": 9, "title": "IMG_1226", "ispublic": 1, "isfriend": 0, "isfamily": 0 },
        { "id": "29525979291", "owner": "94529704@N02", "secret": "45ef13fcac", "server": "8407", "farm": 9, "title": "IMG_1199-2", "ispublic": 1, "isfriend": 0, "isfamily": 0 },
        { "id": "29496568062", "owner": "94529704@N02", "secret": "0cb52c5479", "server": "8105", "farm": 9, "title": "IMG_1199_4", "ispublic": 1, "isfriend": 0, "isfamily": 0 },
        { "id": "29525930691", "owner": "94529704@N02", "secret": "dc33ed5fe6", "server": "8703", "farm": 9, "title": "IMG_1199_3", "ispublic": 1, "isfriend": 0, "isfamily": 0 },
        { "id": "29496570992", "owner": "94529704@N02", "secret": "f2c01721df", "server": "8295", "farm": 9, "title": "IMG_1199_2", "ispublic": 1, "isfriend": 0, "isfamily": 0 },
        { "id": "29496572972", "owner": "94529704@N02", "secret": "dace64da00", "server": "8095", "farm": 9, "title": "IMG_1199_1", "ispublic": 1, "isfriend": 0, "isfamily": 0 },
        { "id": "29496574602", "owner": "94529704@N02", "secret": "68f64f0a1a", "server": "8442", "farm": 9, "title": "IMG_1199", "ispublic": 1, "isfriend": 0, "isfamily": 0 },
        { "id": "28981284584", "owner": "94529704@N02", "secret": "6e37cd4449", "server": "8446", "farm": 9, "title": "IMG_1197-2", "ispublic": 1, "isfriend": 0, "isfamily": 0 },
        { "id": "29525980571", "owner": "94529704@N02", "secret": "c7d345f8b3", "server": "8314", "farm": 9, "title": "IMG_1197", "ispublic": 1, "isfriend": 0, "isfamily": 0 },
        { "id": "29316386050", "owner": "94529704@N02", "secret": "23a6f4ea17", "server": "8425", "farm": 9, "title": "IMG_1187", "ispublic": 1, "isfriend": 0, "isfamily": 0 },
        { "id": "29316386120", "owner": "94529704@N02", "secret": "d0abd32b0c", "server": "8140", "farm": 9, "title": "IMG_1186_resize", "ispublic": 1, "isfriend": 0, "isfamily": 0 },
        { "id": "29316389330", "owner": "94529704@N02", "secret": "bd1454b322", "server": "8148", "farm": 9, "title": "IMG_1186_1", "ispublic": 1, "isfriend": 0, "isfamily": 0 },
        { "id": "29316393220", "owner": "94529704@N02", "secret": "33f992f1ff", "server": "8066", "farm": 9, "title": "IMG_1186", "ispublic": 1, "isfriend": 0, "isfamily": 0 },
        { "id": "29316395060", "owner": "94529704@N02", "secret": "4a47ef1a8e", "server": "8803", "farm": 9, "title": "IMG_1184-1", "ispublic": 1, "isfriend": 0, "isfamily": 0 },
        { "id": "29316395720", "owner": "94529704@N02", "secret": "b0146ea060", "server": "8128", "farm": 9, "title": "IMG_1184", "ispublic": 1, "isfriend": 0, "isfamily": 0 },
        { "id": "29316396330", "owner": "94529704@N02", "secret": "deed9849d6", "server": "8345", "farm": 9, "title": "IMG_1177", "ispublic": 1, "isfriend": 0, "isfamily": 0 },
        { "id": "29316397090", "owner": "94529704@N02", "secret": "b769428d4b", "server": "8501", "farm": 9, "title": "IMG_1174", "ispublic": 1, "isfriend": 0, "isfamily": 0 },
        { "id": "29316400220", "owner": "94529704@N02", "secret": "7a8c23365b", "server": "8010", "farm": 9, "title": "IMG_1173", "ispublic": 1, "isfriend": 0, "isfamily": 0 },
        { "id": "29316403250", "owner": "94529704@N02", "secret": "697c5ede27", "server": "8252", "farm": 9, "title": "IMG_1172-1", "ispublic": 1, "isfriend": 0, "isfamily": 0 },
        { "id": "29316403700", "owner": "94529704@N02", "secret": "ddaf7c63c4", "server": "8071", "farm": 9, "title": "IMG_1172_resize", "ispublic": 1, "isfriend": 0, "isfamily": 0 },
        { "id": "28981285414", "owner": "94529704@N02", "secret": "55dc698113", "server": "8496", "farm": 9, "title": "IMG_1172", "ispublic": 1, "isfriend": 0, "isfamily": 0 },
        { "id": "29316405820", "owner": "94529704@N02", "secret": "a818dc9dc4", "server": "8412", "farm": 9, "title": "IMG_1165", "ispublic": 1, "isfriend": 0, "isfamily": 0 },
        { "id": "29316409260", "owner": "94529704@N02", "secret": "a3e18bb20f", "server": "8205", "farm": 9, "title": "IMG_1164", "ispublic": 1, "isfriend": 0, "isfamily": 0 },
        { "id": "29525983201", "owner": "94529704@N02", "secret": "64b4cd9a6b", "server": "8893", "farm": 9, "title": "IMG_1161-2", "ispublic": 1, "isfriend": 0, "isfamily": 0 },
        { "id": "29316413410", "owner": "94529704@N02", "secret": "29ef37335b", "server": "8118", "farm": 9, "title": "IMG_1161-1", "ispublic": 1, "isfriend": 0, "isfamily": 0 },
        { "id": "28981286904", "owner": "94529704@N02", "secret": "74590be8e8", "server": "8286", "farm": 9, "title": "IMG_1161", "ispublic": 1, "isfriend": 0, "isfamily": 0 },
        { "id": "28981288074", "owner": "94529704@N02", "secret": "0c7de07378", "server": "8524", "farm": 9, "title": "IMG_1156", "ispublic": 1, "isfriend": 0, "isfamily": 0 },
        { "id": "29316415110", "owner": "94529704@N02", "secret": "9032b12376", "server": "8091", "farm": 9, "title": "IMG_1155", "ispublic": 1, "isfriend": 0, "isfamily": 0 },
        { "id": "28981289514", "owner": "94529704@N02", "secret": "c077a562fc", "server": "8245", "farm": 9, "title": "IMG_1150", "ispublic": 1, "isfriend": 0, "isfamily": 0 },
        { "id": "29572486896", "owner": "94529704@N02", "secret": "b264454ef6", "server": "8102", "farm": 9, "title": "IMG_1149", "ispublic": 1, "isfriend": 0, "isfamily": 0 },
        { "id": "28981291234", "owner": "94529704@N02", "secret": "b2a585d7f8", "server": "8365", "farm": 9, "title": "_MG_2187-2", "ispublic": 1, "isfriend": 0, "isfamily": 0 },
        { "id": "29572492706", "owner": "94529704@N02", "secret": "ef3b26d75c", "server": "8452", "farm": 9, "title": "_MG_2187", "ispublic": 1, "isfriend": 0, "isfamily": 0 },
        { "id": "28981293644", "owner": "94529704@N02", "secret": "27286d4fd2", "server": "8104", "farm": 9, "title": "_MG_2132", "ispublic": 1, "isfriend": 0, "isfamily": 0 },
        { "id": "28981295074", "owner": "94529704@N02", "secret": "0e0031243a", "server": "7461", "farm": 8, "title": "_MG_2122", "ispublic": 1, "isfriend": 0, "isfamily": 0 },
        { "id": "28981296294", "owner": "94529704@N02", "secret": "38b00e9f8f", "server": "8049", "farm": 9, "title": "_MG_2057", "ispublic": 1, "isfriend": 0, "isfamily": 0 },
        { "id": "28981297984", "owner": "94529704@N02", "secret": "1d0b191e04", "server": "8001", "farm": 9, "title": "_MG_2054", "ispublic": 1, "isfriend": 0, "isfamily": 0 },
        { "id": "28981300464", "owner": "94529704@N02", "secret": "8e2c949546", "server": "7721", "farm": 8, "title": "_MG_2031-2", "ispublic": 1, "isfriend": 0, "isfamily": 0 },
        { "id": "28982983723", "owner": "94529704@N02", "secret": "183dbae05d", "server": "8033", "farm": 9, "title": "_MG_2031", "ispublic": 1, "isfriend": 0, "isfamily": 0 },
        { "id": "28982985113", "owner": "94529704@N02", "secret": "1fa7ebe214", "server": "8429", "farm": 9, "title": "_MG_2029", "ispublic": 1, "isfriend": 0, "isfamily": 0 },
        { "id": "28982769003", "owner": "94529704@N02", "secret": "da1326f980", "server": "8501", "farm": 9, "title": "_MG_1926-2", "ispublic": 1, "isfriend": 0, "isfamily": 0 },
        { "id": "29572276666", "owner": "94529704@N02", "secret": "bba4ee5de8", "server": "7772", "farm": 8, "title": "_MG_1926", "ispublic": 1, "isfriend": 0, "isfamily": 0 },
        { "id": "29525774811", "owner": "94529704@N02", "secret": "b061e36d87", "server": "8270", "farm": 9, "title": "_MG_1827", "ispublic": 1, "isfriend": 0, "isfamily": 0 },
        { "id": "29572282196", "owner": "94529704@N02", "secret": "5e6d59a881", "server": "8570", "farm": 9, "title": "_MG_1792", "ispublic": 1, "isfriend": 0, "isfamily": 0 },
        { "id": "29525779111", "owner": "94529704@N02", "secret": "65a2b58938", "server": "8164", "farm": 9, "title": "_MG_1742", "ispublic": 1, "isfriend": 0, "isfamily": 0 },
        { "id": "29525782281", "owner": "94529704@N02", "secret": "799c50b7cf", "server": "8243", "farm": 9, "title": "_MG_1726", "ispublic": 1, "isfriend": 0, "isfamily": 0 },
        { "id": "29572293276", "owner": "94529704@N02", "secret": "99b8f94b22", "server": "8325", "farm": 9, "title": "_MG_1682", "ispublic": 1, "isfriend": 0, "isfamily": 0 },
        { "id": "29316185310", "owner": "94529704@N02", "secret": "a171b553c8", "server": "8018", "farm": 9, "title": "_MG_1646", "ispublic": 1, "isfriend": 0, "isfamily": 0 },
        { "id": "29316187570", "owner": "94529704@N02", "secret": "f0d749766b", "server": "8334", "farm": 9, "title": "_MG_1645", "ispublic": 1, "isfriend": 0, "isfamily": 0 },
        { "id": "29316190710", "owner": "94529704@N02", "secret": "7553e4dbc0", "server": "8099", "farm": 9, "title": "_MG_1632", "ispublic": 1, "isfriend": 0, "isfamily": 0 },
        { "id": "29486206411", "owner": "94529704@N02", "secret": "33011ea4ed", "server": "8554", "farm": 9, "title": "_MG_1292", "ispublic": 1, "isfriend": 0, "isfamily": 0 },
        { "id": "29532554786", "owner": "94529704@N02", "secret": "a200a2bc04", "server": "8060", "farm": 9, "title": "_MG_1261", "ispublic": 1, "isfriend": 0, "isfamily": 0 },
        { "id": "29566588315", "owner": "94529704@N02", "secret": "d55be47722", "server": "8167", "farm": 9, "title": "_MG_1241", "ispublic": 1, "isfriend": 0, "isfamily": 0 },
        { "id": "29486209681", "owner": "94529704@N02", "secret": "0ea15bf064", "server": "8090", "farm": 9, "title": "_MG_1219", "ispublic": 1, "isfriend": 0, "isfamily": 0 },
        { "id": "29456773332", "owner": "94529704@N02", "secret": "0c8321efaf", "server": "8314", "farm": 9, "title": "IMG_4593", "ispublic": 1, "isfriend": 0, "isfamily": 0 },
        { "id": "29486022741", "owner": "94529704@N02", "secret": "96daa077fb", "server": "8182", "farm": 9, "title": "IMG_4579", "ispublic": 1, "isfriend": 0, "isfamily": 0 },
        { "id": "29456775892", "owner": "94529704@N02", "secret": "e36ded3d71", "server": "8633", "farm": 9, "title": "IMG_4458", "ispublic": 1, "isfriend": 0, "isfamily": 0 },
        { "id": "29486024361", "owner": "94529704@N02", "secret": "10858afc2a", "server": "8759", "farm": 9, "title": "IMG_4374", "ispublic": 1, "isfriend": 0, "isfamily": 0 },
        { "id": "29456778242", "owner": "94529704@N02", "secret": "265a3250e6", "server": "8714", "farm": 9, "title": "IMG_4369", "ispublic": 1, "isfriend": 0, "isfamily": 0 },
        { "id": "29486027561", "owner": "94529704@N02", "secret": "029ecaeae8", "server": "8745", "farm": 9, "title": "IMG_4324", "ispublic": 1, "isfriend": 0, "isfamily": 0 },
        { "id": "29485910481", "owner": "94529704@N02", "secret": "9f07665893", "server": "8046", "farm": 9, "title": "_MG_1155", "ispublic": 1, "isfriend": 0, "isfamily": 0 },
        { "id": "28942870443", "owner": "94529704@N02", "secret": "b07582ca9c", "server": "7572", "farm": 8, "title": "_MG_1141", "ispublic": 1, "isfriend": 0, "isfamily": 0 },
        { "id": "29485914891", "owner": "94529704@N02", "secret": "d05b803cfe", "server": "8673", "farm": 9, "title": "_MG_1004", "ispublic": 1, "isfriend": 0, "isfamily": 0 },
        { "id": "29485916921", "owner": "94529704@N02", "secret": "f9b8a3bf1e", "server": "8281", "farm": 9, "title": "_MG_0992", "ispublic": 1, "isfriend": 0, "isfamily": 0 },
        { "id": "28942874623", "owner": "94529704@N02", "secret": "5affa7ddcc", "server": "7747", "farm": 8, "title": "_MG_0932", "ispublic": 1, "isfriend": 0, "isfamily": 0 },
        { "id": "28942876553", "owner": "94529704@N02", "secret": "09ccb08b23", "server": "8558", "farm": 9, "title": "_MG_0918", "ispublic": 1, "isfriend": 0, "isfamily": 0 },
        { "id": "28942878373", "owner": "94529704@N02", "secret": "0c6c1a4515", "server": "8769", "farm": 9, "title": "_MG_0916", "ispublic": 1, "isfriend": 0, "isfamily": 0 },
        { "id": "28942879723", "owner": "94529704@N02", "secret": "045e0bc5df", "server": "8372", "farm": 9, "title": "_MG_0876", "ispublic": 1, "isfriend": 0, "isfamily": 0 },
        { "id": "29532266836", "owner": "94529704@N02", "secret": "f3052193c0", "server": "8650", "farm": 9, "title": "_MG_0824", "ispublic": 1, "isfriend": 0, "isfamily": 0 },
        { "id": "29532267986", "owner": "94529704@N02", "secret": "b34b84eece", "server": "8073", "farm": 9, "title": "_MG_0774", "ispublic": 1, "isfriend": 0, "isfamily": 0 },
        { "id": "28479400942", "owner": "94529704@N02", "secret": "d14d2cd370", "server": "8630", "farm": 9, "title": "IMG_0314", "ispublic": 0, "isfriend": 0, "isfamily": 0 },
        { "id": "28479400092", "owner": "94529704@N02", "secret": "12ceea337c", "server": "8589", "farm": 9, "title": "IMG_9813", "ispublic": 0, "isfriend": 0, "isfamily": 0 },
        { "id": "28553496246", "owner": "94529704@N02", "secret": "cdb244b87c", "server": "8812", "farm": 9, "title": "IMG_0451", "ispublic": 0, "isfriend": 0, "isfamily": 0 },
        { "id": "28479397782", "owner": "94529704@N02", "secret": "d7c07dbafd", "server": "8017", "farm": 9, "title": "IMG_0433", "ispublic": 0, "isfriend": 0, "isfamily": 0 },
        { "id": "27968857264", "owner": "94529704@N02", "secret": "6bf1614fcf", "server": "7667", "farm": 8, "title": "IMG_0767", "ispublic": 0, "isfriend": 0, "isfamily": 0 },
        { "id": "28553495486", "owner": "94529704@N02", "secret": "0379838c40", "server": "7581", "farm": 8, "title": "IMG_0024", "ispublic": 0, "isfriend": 0, "isfamily": 0 },
        { "id": "28301986810", "owner": "94529704@N02", "secret": "4a0d2310bd", "server": "8863", "farm": 9, "title": "IMG_0253", "ispublic": 0, "isfriend": 0, "isfamily": 0 },
        { "id": "27968855034", "owner": "94529704@N02", "secret": "5257325f7e", "server": "8732", "farm": 9, "title": "IMG_0537", "ispublic": 0, "isfriend": 0, "isfamily": 0 },
        { "id": "28301985800", "owner": "94529704@N02", "secret": "381b3373bb", "server": "8570", "farm": 9, "title": "IMG_0508", "ispublic": 0, "isfriend": 0, "isfamily": 0 },
        { "id": "27968853654", "owner": "94529704@N02", "secret": "d115b68473", "server": "8426", "farm": 9, "title": "IMG_0507", "ispublic": 0, "isfriend": 0, "isfamily": 0 },
        { "id": "28507485471", "owner": "94529704@N02", "secret": "b073916f5c", "server": "8850", "farm": 9, "title": "IMG_9732", "ispublic": 0, "isfriend": 0, "isfamily": 0 },
        { "id": "26243564375", "owner": "94529704@N02", "secret": "0226778611", "server": "1582", "farm": 2, "title": "IMG_5663", "ispublic": 0, "isfriend": 0, "isfamily": 0 },
        { "id": "25638791704", "owner": "94529704@N02", "secret": "5110a66d93", "server": "1552", "farm": 2, "title": "IMG_5022", "ispublic": 0, "isfriend": 0, "isfamily": 0 },
        { "id": "26243558565", "owner": "94529704@N02", "secret": "13470b083c", "server": "1618", "farm": 2, "title": "IMG_5066", "ispublic": 0, "isfriend": 0, "isfamily": 0 },
        { "id": "26177282901", "owner": "94529704@N02", "secret": "d3ac934081", "server": "1663", "farm": 2, "title": "IMG_4945", "ispublic": 0, "isfriend": 0, "isfamily": 0 },
        { "id": "26177283211", "owner": "94529704@N02", "secret": "6b7d49c603", "server": "1623", "farm": 2, "title": "IMG_1825", "ispublic": 0, "isfriend": 0, "isfamily": 0 },
        { "id": "25970685070", "owner": "94529704@N02", "secret": "00b937f68f", "server": "1674", "farm": 2, "title": "IMG_1816", "ispublic": 0, "isfriend": 0, "isfamily": 0 },
        { "id": "25970685090", "owner": "94529704@N02", "secret": "6381ac7581", "server": "1712", "farm": 2, "title": "IMG_5616", "ispublic": 0, "isfriend": 0, "isfamily": 0 },
        { "id": "25970685350", "owner": "94529704@N02", "secret": "c2a944c8e4", "server": "1513", "farm": 2, "title": "IMG_5613", "ispublic": 0, "isfriend": 0, "isfamily": 0 }
    ] }, "stat": "ok" }
