{ "photos": { "page": 1, "pages": 3, "perpage": "150", "total": "358",
    "photo": [
        { "id": "50068037298", "owner": "94529704@N02", "secret": "4bacd5c629", "server": "65535", "farm": 66, "title": "YX5A0674", "ispublic": 0, "isfriend": 1, "isfamily": 0 },
        { "id": "32921496767", "owner": "94529704@N02", "secret": "4ab5621a87", "server": "65535", "farm": 66, "title": "YX5A9837", "ispublic": 1, "isfriend": 0, "isfamily": 0 },
        { "id": "47076157974", "owner": "94529704@N02", "secret": "14451f9425", "server": "65535", "farm": 66, "title": "Curve", "ispublic": 1, "isfriend": 0, "isfamily": 0 },
        { "id": "46830974495", "owner": "94529704@N02", "secret": "7e6d50853f", "server": "65535", "farm": 66, "title": "YX5A0674", "ispublic": 1, "isfriend": 0, "isfamily": 0 },
        { "id": "40357309493", "owner": "94529704@N02", "secret": "278fa825a8", "server": "7917", "farm": 8, "title": "YX5A9646", "ispublic": 1, "isfriend": 0, "isfamily": 0 },
        { "id": "47269820962", "owner": "94529704@N02", "secret": "5004064bce", "server": "7853", "farm": 8, "title": "YX5A0642", "ispublic": 1, "isfriend": 0, "isfamily": 0 },
        { "id": "40357357283", "owner": "94529704@N02", "secret": "bfdb9a7c1f", "server": "7858", "farm": 8, "title": "YX5A0639", "ispublic": 1, "isfriend": 0, "isfamily": 0 },
        { "id": "32073722887", "owner": "94529704@N02", "secret": "c31a4d8b1d", "server": "4834", "farm": 5, "title": "YX5A0703", "ispublic": 1, "isfriend": 0, "isfamily": 0 },
        { "id": "45907884424", "owner": "94529704@N02", "secret": "dd2e428e29", "server": "7838", "farm": 8, "title": "YX5A0666", "ispublic": 1, "isfriend": 0, "isfamily": 0 },
        { "id": "45903097304", "owner": "94529704@N02", "secret": "e94ee4a535", "server": "4821", "farm": 5, "title": "YX5A9814", "ispublic": 1, "isfriend": 0, "isfamily": 0 },
        { "id": "46562457932", "owner": "94529704@N02", "secret": "538b414137", "server": "7840", "farm": 8, "title": "YX5A9857", "ispublic": 1, "isfriend": 0, "isfamily": 0 },
        { "id": "44472585915", "owner": "94529704@N02", "secret": "fed9b648d1", "server": "1918", "farm": 2, "title": "2018-10-17_09-45-26", "ispublic": 0, "isfriend": 0, "isfamily": 0 },
        { "id": "44623877312", "owner": "94529704@N02", "secret": "8620ea22ba", "server": "1884", "farm": 2, "title": "YX5A0280", "ispublic": 1, "isfriend": 0, "isfamily": 0 },
        { "id": "44623879392", "owner": "94529704@N02", "secret": "523e88d142", "server": "1900", "farm": 2, "title": "YX5A0253", "ispublic": 1, "isfriend": 0, "isfamily": 0 },
        { "id": "44673441011", "owner": "94529704@N02", "secret": "f039c12614", "server": "1847", "farm": 2, "title": "YX5A0203", "ispublic": 1, "isfriend": 0, "isfamily": 0 },
        { "id": "29611443547", "owner": "94529704@N02", "secret": "26c65d66f0", "server": "1886", "farm": 2, "title": "YX5A0181", "ispublic": 1, "isfriend": 0, "isfamily": 0 },
        { "id": "42740736920", "owner": "94529704@N02", "secret": "5944378728", "server": "1844", "farm": 2, "title": "YX5A0047", "ispublic": 1, "isfriend": 0, "isfamily": 0 },
        { "id": "42835755265", "owner": "94529704@N02", "secret": "a4fc79159c", "server": "849", "farm": 1, "title": "2018-07-30_10-24-51", "ispublic": 1, "isfriend": 0, "isfamily": 0 },
        { "id": "28891387978", "owner": "94529704@N02", "secret": "d9a0e13e76", "server": "1736", "farm": 2, "title": "YX5A9964.CR2", "ispublic": 1, "isfriend": 0, "isfamily": 0 },
        { "id": "26146827807", "owner": "94529704@N02", "secret": "b144870a0e", "server": "799", "farm": 1, "title": "YX5A0132.jpg", "ispublic": 1, "isfriend": 0, "isfamily": 0 },
        { "id": "40308464314", "owner": "94529704@N02", "secret": "3f18efeca0", "server": "795", "farm": 1, "title": "YX5A9990.jpg", "ispublic": 1, "isfriend": 0, "isfamily": 0 },
        { "id": "41000629661", "owner": "94529704@N02", "secret": "b82fe32933", "server": "4781", "farm": 5, "title": "YX5A9812.jpg", "ispublic": 1, "isfriend": 0, "isfamily": 0 },
        { "id": "39191402250", "owner": "94529704@N02", "secret": "0650f6b704", "server": "807", "farm": 1, "title": "YX5A9658.jpg", "ispublic": 1, "isfriend": 0, "isfamily": 0 },
        { "id": "26129806257", "owner": "94529704@N02", "secret": "84c1ca237c", "server": "818", "farm": 1, "title": "IMG_20180325_071514_939", "ispublic": 1, "isfriend": 0, "isfamily": 0 },
        { "id": "41000335411", "owner": "94529704@N02", "secret": "7f15a3ba42", "server": "786", "farm": 1, "title": "YX5A9564.jpg", "ispublic": 1, "isfriend": 0, "isfamily": 0 },
        { "id": "40106840265", "owner": "94529704@N02", "secret": "b1347e2f9b", "server": "808", "farm": 1, "title": "YX5A9355.jpg", "ispublic": 1, "isfriend": 0, "isfamily": 0 },
        { "id": "40947191192", "owner": "94529704@N02", "secret": "9c80693e0e", "server": "815", "farm": 1, "title": "AdobeLightroom", "ispublic": 1, "isfriend": 0, "isfamily": 0 },
        { "id": "26107359137", "owner": "94529704@N02", "secret": "3c80e90bd5", "server": "797", "farm": 1, "title": "AdobeLightroom", "ispublic": 1, "isfriend": 0, "isfamily": 0 },
        { "id": "26099950727", "owner": "94529704@N02", "secret": "b28f6f8650", "server": "799", "farm": 1, "title": "AdobeLightroom", "ispublic": 1, "isfriend": 0, "isfamily": 0 },
        { "id": "39161622120", "owner": "94529704@N02", "secret": "03990f9225", "server": "4776", "farm": 5, "title": "AdobeLightroom", "ispublic": 1, "isfriend": 0, "isfamily": 0 },
        { "id": "36517459286", "owner": "94529704@N02", "secret": "ae029e6ace", "server": "4414", "farm": 5, "title": "GPM_5885", "ispublic": 0, "isfriend": 0, "isfamily": 0 },
        { "id": "36517447906", "owner": "94529704@N02", "secret": "9cf048db7a", "server": "4331", "farm": 5, "title": "GPM_6045", "ispublic": 0, "isfriend": 0, "isfamily": 0 },
        { "id": "36517445666", "owner": "94529704@N02", "secret": "6cc6915852", "server": "4412", "farm": 5, "title": "GPM_5836", "ispublic": 0, "isfriend": 0, "isfamily": 0 },
        { "id": "36562587295", "owner": "94529704@N02", "secret": "4fdf12f251", "server": "4412", "farm": 5, "title": "GPM_6061", "ispublic": 0, "isfriend": 0, "isfamily": 0 },
        { "id": "36562579845", "owner": "94529704@N02", "secret": "d36cf5a8b6", "server": "4404", "farm": 5, "title": "GPM_5772", "ispublic": 0, "isfriend": 0, "isfamily": 0 },
        { "id": "36562579505", "owner": "94529704@N02", "secret": "ae19b4d8c9", "server": "4424", "farm": 5, "title": "GPM_6024", "ispublic": 0, "isfriend": 0, "isfamily": 0 },
        { "id": "35753180383", "owner": "94529704@N02", "secret": "fafd355532", "server": "4355", "farm": 5, "title": "GPM_5912", "ispublic": 0, "isfriend": 0, "isfamily": 0 },
        { "id": "36562529415", "owner": "94529704@N02", "secret": "832dc88f52", "server": "4370", "farm": 5, "title": "GPM_5830", "ispublic": 0, "isfriend": 0, "isfamily": 0 },
        { "id": "36562526485", "owner": "94529704@N02", "secret": "583dcb00fa", "server": "4359", "farm": 5, "title": "GPM_6079", "ispublic": 0, "isfriend": 0, "isfamily": 0 },
        { "id": "35753157553", "owner": "94529704@N02", "secret": "472a865321", "server": "4439", "farm": 5, "title": "GPM_5989", "ispublic": 0, "isfriend": 0, "isfamily": 0 },
        { "id": "35753148373", "owner": "94529704@N02", "secret": "e97c75c155", "server": "4362", "farm": 5, "title": "GPM_5887", "ispublic": 0, "isfriend": 0, "isfamily": 0 },
        { "id": "35753142233", "owner": "94529704@N02", "secret": "9295ae637d", "server": "4387", "farm": 5, "title": "GPM_6022", "ispublic": 0, "isfriend": 0, "isfamily": 0 },
        { "id": "36562455935", "owner": "94529704@N02", "secret": "848b503755", "server": "4435", "farm": 5, "title": "GPM_5937", "ispublic": 0, "isfriend": 0, "isfamily": 0 },
        { "id": "36562448595", "owner": "94529704@N02", "secret": "4b7f4c6d08", "server": "4423", "farm": 5, "title": "GPM_6043", "ispublic": 0, "isfriend": 0, "isfamily": 0 },
        { "id": "36562448475", "owner": "94529704@N02", "secret": "c4792957f6", "server": "4338", "farm": 5, "title": "GPM_6068", "ispublic": 0, "isfriend": 0, "isfamily": 0 },
        { "id": "36562433545", "owner": "94529704@N02", "secret": "2bf69d397e", "server": "4416", "farm": 5, "title": "GPM_5932", "ispublic": 0, "isfriend": 0, "isfamily": 0 },
        { "id": "36562387325", "owner": "94529704@N02", "secret": "e298e63d95", "server": "4377", "farm": 5, "title": "GPM_6070", "ispublic": 0, "isfriend": 0, "isfamily": 0 },
        { "id": "36562378665", "owner": "94529704@N02", "secret": "cd13ca1442", "server": "4395", "farm": 5, "title": "GPM_5789", "ispublic": 0, "isfriend": 0, "isfamily": 0 },
        { "id": "36562373235", "owner": "94529704@N02", "secret": "e40fc918a2", "server": "4408", "farm": 5, "title": "GPM_5811", "ispublic": 0, "isfriend": 0, "isfamily": 0 },
        { "id": "36562365715", "owner": "94529704@N02", "secret": "af4300686b", "server": "4401", "farm": 5, "title": "GPM_5775", "ispublic": 0, "isfriend": 0, "isfamily": 0 },
        { "id": "36562335635", "owner": "94529704@N02", "secret": "5e502a2412", "server": "4399", "farm": 5, "title": "GPM_5786", "ispublic": 0, "isfriend": 0, "isfamily": 0 },
        { "id": "36562323945", "owner": "94529704@N02", "secret": "f9c9eed76d", "server": "4363", "farm": 5, "title": "GPM_5810", "ispublic": 0, "isfriend": 0, "isfamily": 0 },
        { "id": "35752972313", "owner": "94529704@N02", "secret": "d3151e8062", "server": "4399", "farm": 5, "title": "GPM_5962", "ispublic": 0, "isfriend": 0, "isfamily": 0 },
        { "id": "36562314975", "owner": "94529704@N02", "secret": "1b48b138cf", "server": "4334", "farm": 5, "title": "GPM_5854", "ispublic": 0, "isfriend": 0, "isfamily": 0 },
        { "id": "36562313495", "owner": "94529704@N02", "secret": "dc7f9d146c", "server": "4353", "farm": 5, "title": "GPM_5778", "ispublic": 0, "isfriend": 0, "isfamily": 0 },
        { "id": "36562309985", "owner": "94529704@N02", "secret": "93206d95a8", "server": "4427", "farm": 5, "title": "GPM_5944", "ispublic": 0, "isfriend": 0, "isfamily": 0 },
        { "id": "35752759903", "owner": "94529704@N02", "secret": "25e616411d", "server": "4373", "farm": 5, "title": "GPM_5807", "ispublic": 0, "isfriend": 0, "isfamily": 0 },
        { "id": "35752758193", "owner": "94529704@N02", "secret": "d8bc44ac8e", "server": "4337", "farm": 5, "title": "GPM_5803", "ispublic": 0, "isfriend": 0, "isfamily": 0 },
        { "id": "35752729983", "owner": "94529704@N02", "secret": "60efb70177", "server": "4421", "farm": 5, "title": "GPM_5893", "ispublic": 0, "isfriend": 0, "isfamily": 0 },
        { "id": "35752724013", "owner": "94529704@N02", "secret": "9b5618f90f", "server": "4401", "farm": 5, "title": "GPM_5782", "ispublic": 0, "isfriend": 0, "isfamily": 0 },
        { "id": "35752718693", "owner": "94529704@N02", "secret": "566b55ee0a", "server": "4360", "farm": 5, "title": "GPM_5813", "ispublic": 0, "isfriend": 0, "isfamily": 0 },
        { "id": "36562043455", "owner": "94529704@N02", "secret": "3cb6187fe6", "server": "4389", "farm": 5, "title": "GPM_6015", "ispublic": 0, "isfriend": 0, "isfamily": 0 },
        { "id": "36562038345", "owner": "94529704@N02", "secret": "c40864bbae", "server": "4359", "farm": 5, "title": "GPM_5993", "ispublic": 0, "isfriend": 0, "isfamily": 0 },
        { "id": "36562036405", "owner": "94529704@N02", "secret": "d054d8fef4", "server": "4431", "farm": 5, "title": "GPM_5899", "ispublic": 0, "isfriend": 0, "isfamily": 0 },
        { "id": "36562027205", "owner": "94529704@N02", "secret": "702f23fa89", "server": "4394", "farm": 5, "title": "GPM_5907", "ispublic": 0, "isfriend": 0, "isfamily": 0 },
        { "id": "35752628333", "owner": "94529704@N02", "secret": "aae58e0c7d", "server": "4361", "farm": 5, "title": "GPM_5874", "ispublic": 0, "isfriend": 0, "isfamily": 0 },
        { "id": "35752628323", "owner": "94529704@N02", "secret": "7223d7e7f0", "server": "4355", "farm": 5, "title": "GPM_6005", "ispublic": 0, "isfriend": 0, "isfamily": 0 },
        { "id": "35752623003", "owner": "94529704@N02", "secret": "b3701f6003", "server": "4388", "farm": 5, "title": "GPM_5871", "ispublic": 0, "isfriend": 0, "isfamily": 0 },
        { "id": "35752622803", "owner": "94529704@N02", "secret": "77e6d0f9a7", "server": "4353", "farm": 5, "title": "GPM_5906", "ispublic": 0, "isfriend": 0, "isfamily": 0 },
        { "id": "36562010685", "owner": "94529704@N02", "secret": "06e99c19ee", "server": "4435", "farm": 5, "title": "GPM_6035", "ispublic": 0, "isfriend": 0, "isfamily": 0 },
        { "id": "36562008445", "owner": "94529704@N02", "secret": "7d827db8d1", "server": "4422", "farm": 5, "title": "GPM_5928", "ispublic": 0, "isfriend": 0, "isfamily": 0 },
        { "id": "36562004635", "owner": "94529704@N02", "secret": "30eaa8e9c0", "server": "4380", "farm": 5, "title": "GPM_6077", "ispublic": 0, "isfriend": 0, "isfamily": 0 },
        { "id": "36562002415", "owner": "94529704@N02", "secret": "ab07122169", "server": "4361", "farm": 5, "title": "GPM_6075", "ispublic": 0, "isfriend": 0, "isfamily": 0 },
        { "id": "36561999785", "owner": "94529704@N02", "secret": "02d3b8e981", "server": "4423", "farm": 5, "title": "GPM_5931", "ispublic": 0, "isfriend": 0, "isfamily": 0 },
        { "id": "36561998485", "owner": "94529704@N02", "secret": "28057a835c", "server": "4429", "farm": 5, "title": "GPM_5838", "ispublic": 0, "isfriend": 0, "isfamily": 0 },
        { "id": "36561994275", "owner": "94529704@N02", "secret": "bb71f7a31f", "server": "4402", "farm": 5, "title": "GPM_5998", "ispublic": 0, "isfriend": 0, "isfamily": 0 },
        { "id": "36561991135", "owner": "94529704@N02", "secret": "40652a5ed9", "server": "4350", "farm": 5, "title": "GPM_5781", "ispublic": 0, "isfriend": 0, "isfamily": 0 },
        { "id": "36561989885", "owner": "94529704@N02", "secret": "769570efee", "server": "4362", "farm": 5, "title": "GPM_5792", "ispublic": 0, "isfriend": 0, "isfamily": 0 },
        { "id": "36561986185", "owner": "94529704@N02", "secret": "5b6817f083", "server": "4383", "farm": 5, "title": "GPM_5974", "ispublic": 0, "isfriend": 0, "isfamily": 0 },
        { "id": "36561982215", "owner": "94529704@N02", "secret": "0b231a8df0", "server": "4332", "farm": 5, "title": "GPM_5943", "ispublic": 0, "isfriend": 0, "isfamily": 0 },
        { "id": "36561956225", "owner": "94529704@N02", "secret": "579b97d046", "server": "4394", "farm": 5, "title": "GPM_6052", "ispublic": 0, "isfriend": 0, "isfamily": 0 },
        { "id": "36561953345", "owner": "94529704@N02", "secret": "d99838fd9c", "server": "4362", "farm": 5, "title": "GPM_5984", "ispublic": 0, "isfriend": 0, "isfamily": 0 },
        { "id": "36561873085", "owner": "94529704@N02", "secret": "c8d83dd602", "server": "4379", "farm": 5, "title": "GPM_6051", "ispublic": 0, "isfriend": 0, "isfamily": 0 },
        { "id": "36561867025", "owner": "94529704@N02", "secret": "d8b38d3ee6", "server": "4382", "farm": 5, "title": "GPM_6046", "ispublic": 0, "isfriend": 0, "isfamily": 0 },
        { "id": "36561867015", "owner": "94529704@N02", "secret": "dff5cb001c", "server": "4415", "farm": 5, "title": "GPM_5983", "ispublic": 0, "isfriend": 0, "isfamily": 0 },
        { "id": "36561865345", "owner": "94529704@N02", "secret": "ec375b4ace", "server": "4370", "farm": 5, "title": "GPM_5769", "ispublic": 0, "isfriend": 0, "isfamily": 0 },
        { "id": "36561823295", "owner": "94529704@N02", "secret": "a2c8ea2870", "server": "4422", "farm": 5, "title": "GPM_5987", "ispublic": 0, "isfriend": 0, "isfamily": 0 },
        { "id": "36561580385", "owner": "94529704@N02", "secret": "05da4e73a4", "server": "4365", "farm": 5, "title": "GPM_5881", "ispublic": 0, "isfriend": 0, "isfamily": 0 },
        { "id": "36561572185", "owner": "94529704@N02", "secret": "910450d815", "server": "4340", "farm": 5, "title": "GPM_5852", "ispublic": 0, "isfriend": 0, "isfamily": 0 },
        { "id": "36423388141", "owner": "94529704@N02", "secret": "c90f880eaa", "server": "4359", "farm": 5, "title": "GPM_5805", "ispublic": 0, "isfriend": 0, "isfamily": 0 },
        { "id": "36561549495", "owner": "94529704@N02", "secret": "f061ceb3b1", "server": "4365", "farm": 5, "title": "GPM_5801", "ispublic": 0, "isfriend": 0, "isfamily": 0 },
        { "id": "36561547065", "owner": "94529704@N02", "secret": "3fdfd1916d", "server": "4422", "farm": 5, "title": "GPM_5934", "ispublic": 0, "isfriend": 0, "isfamily": 0 },
        { "id": "36423350281", "owner": "94529704@N02", "secret": "5b93f7e858", "server": "4357", "farm": 5, "title": "GPM_6017", "ispublic": 0, "isfriend": 0, "isfamily": 0 },
        { "id": "36423347291", "owner": "94529704@N02", "secret": "1649d966d3", "server": "4345", "farm": 5, "title": "GPM_6014", "ispublic": 0, "isfriend": 0, "isfamily": 0 },
        { "id": "36423342831", "owner": "94529704@N02", "secret": "1d3813b637", "server": "4349", "farm": 5, "title": "GPM_5946", "ispublic": 0, "isfriend": 0, "isfamily": 0 },
        { "id": "36423319141", "owner": "94529704@N02", "secret": "49c900a81d", "server": "4350", "farm": 5, "title": "GPM_5911", "ispublic": 0, "isfriend": 0, "isfamily": 0 },
        { "id": "36423309431", "owner": "94529704@N02", "secret": "eb4e08bbbc", "server": "4394", "farm": 5, "title": "GPM_6036", "ispublic": 0, "isfriend": 0, "isfamily": 0 },
        { "id": "36423245731", "owner": "94529704@N02", "secret": "2534d0c1ca", "server": "4406", "farm": 5, "title": "GPM_5978", "ispublic": 0, "isfriend": 0, "isfamily": 0 },
        { "id": "36423237101", "owner": "94529704@N02", "secret": "f15a496680", "server": "4348", "farm": 5, "title": "GPM_5791", "ispublic": 0, "isfriend": 0, "isfamily": 0 },
        { "id": "36423193391", "owner": "94529704@N02", "secret": "8b1a7c974e", "server": "4425", "farm": 5, "title": "GPM_5827", "ispublic": 0, "isfriend": 0, "isfamily": 0 },
        { "id": "36423187951", "owner": "94529704@N02", "secret": "34533cd416", "server": "4369", "farm": 5, "title": "GPM_5867", "ispublic": 0, "isfriend": 0, "isfamily": 0 },
        { "id": "36423185661", "owner": "94529704@N02", "secret": "fbaa290b5a", "server": "4410", "farm": 5, "title": "GPM_6032", "ispublic": 0, "isfriend": 0, "isfamily": 0 },
        { "id": "36423158901", "owner": "94529704@N02", "secret": "15bd5bd37a", "server": "4381", "farm": 5, "title": "GPM_5847", "ispublic": 0, "isfriend": 0, "isfamily": 0 },
        { "id": "36423154181", "owner": "94529704@N02", "secret": "061a5fdb2b", "server": "4342", "farm": 5, "title": "GPM_5824", "ispublic": 0, "isfriend": 0, "isfamily": 0 },
        { "id": "36423049611", "owner": "94529704@N02", "secret": "ee79a42c37", "server": "4409", "farm": 5, "title": "GPM_5941", "ispublic": 0, "isfriend": 0, "isfamily": 0 },
        { "id": "36423026121", "owner": "94529704@N02", "secret": "d87a805c15", "server": "4367", "farm": 5, "title": "GPM_5977", "ispublic": 0, "isfriend": 0, "isfamily": 0 },
        { "id": "36423009901", "owner": "94529704@N02", "secret": "3ab26b5930", "server": "4435", "farm": 5, "title": "GPM_5865", "ispublic": 0, "isfriend": 0, "isfamily": 0 },
        { "id": "36423006041", "owner": "94529704@N02", "secret": "80e857d7b1", "server": "4364", "farm": 5, "title": "GPM_5914", "ispublic": 0, "isfriend": 0, "isfamily": 0 },
        { "id": "36422992821", "owner": "94529704@N02", "secret": "33ed32b52a", "server": "4389", "farm": 5, "title": "GPM_6019", "ispublic": 0, "isfriend": 0, "isfamily": 0 },
        { "id": "36422986051", "owner": "94529704@N02", "secret": "bcdcf2bce1", "server": "4401", "farm": 5, "title": "GPM_5866", "ispublic": 0, "isfriend": 0, "isfamily": 0 },
        { "id": "36422976471", "owner": "94529704@N02", "secret": "ae34552831", "server": "4331", "farm": 5, "title": "GPM_5872", "ispublic": 0, "isfriend": 0, "isfamily": 0 },
        { "id": "36422975251", "owner": "94529704@N02", "secret": "2a53db172d", "server": "4332", "farm": 5, "title": "GPM_5868", "ispublic": 0, "isfriend": 0, "isfamily": 0 },
        { "id": "36422973681", "owner": "94529704@N02", "secret": "3f1170b962", "server": "4343", "farm": 5, "title": "GPM_5964", "ispublic": 0, "isfriend": 0, "isfamily": 0 },
        { "id": "36422964701", "owner": "94529704@N02", "secret": "5dd439b133", "server": "4376", "farm": 5, "title": "GPM_5891", "ispublic": 0, "isfriend": 0, "isfamily": 0 },
        { "id": "36422958241", "owner": "94529704@N02", "secret": "f87c4e8483", "server": "4431", "farm": 5, "title": "GPM_5910", "ispublic": 0, "isfriend": 0, "isfamily": 0 },
        { "id": "36422953771", "owner": "94529704@N02", "secret": "9261363759", "server": "4440", "farm": 5, "title": "GPM_5933", "ispublic": 0, "isfriend": 0, "isfamily": 0 },
        { "id": "36422872551", "owner": "94529704@N02", "secret": "3709c16d3a", "server": "4355", "farm": 5, "title": "GPM_6057", "ispublic": 0, "isfriend": 0, "isfamily": 0 },
        { "id": "36422861711", "owner": "94529704@N02", "secret": "43d3b154f3", "server": "4392", "farm": 5, "title": "GPM_6040", "ispublic": 0, "isfriend": 0, "isfamily": 0 },
        { "id": "36422797811", "owner": "94529704@N02", "secret": "b3c24c49b5", "server": "4385", "farm": 5, "title": "GPM_5921", "ispublic": 0, "isfriend": 0, "isfamily": 0 },
        { "id": "36304419051", "owner": "94529704@N02", "secret": "de65de5caf", "server": "4432", "farm": 5, "title": "20645415_713390715538421_2096216126695053459_o", "ispublic": 1, "isfriend": 0, "isfamily": 0 },
        { "id": "36304416351", "owner": "94529704@N02", "secret": "e22d9e2d42", "server": "4373", "farm": 5, "title": "20643538_713391618871664_2447581869869025816_o", "ispublic": 1, "isfriend": 0, "isfamily": 0 },
        { "id": "36304415821", "owner": "94529704@N02", "secret": "4f57deec78", "server": "4398", "farm": 5, "title": "20643434_713391148871711_5896874686067287118_o", "ispublic": 1, "isfriend": 0, "isfamily": 0 },
        { "id": "36304415431", "owner": "94529704@N02", "secret": "4cea9dc3fa", "server": "4402", "farm": 5, "title": "20643258_713390922205067_1497126996256017648_o", "ispublic": 1, "isfriend": 0, "isfamily": 0 },
        { "id": "36304414981", "owner": "94529704@N02", "secret": "5fe300d464", "server": "4384", "farm": 5, "title": "20643214_713391808871645_756574626543894774_o", "ispublic": 1, "isfriend": 0, "isfamily": 0 },
        { "id": "36304413271", "owner": "94529704@N02", "secret": "3bbfe37827", "server": "4348", "farm": 5, "title": "20626770_713391225538370_5547965160888064988_o", "ispublic": 1, "isfriend": 0, "isfamily": 0 },
        { "id": "36304412521", "owner": "94529704@N02", "secret": "26cdfe17dd", "server": "4380", "farm": 5, "title": "20626500_713391295538363_6642307737203954064_o", "ispublic": 1, "isfriend": 0, "isfamily": 0 },
        { "id": "36304410661", "owner": "94529704@N02", "secret": "169a776524", "server": "4433", "farm": 5, "title": "20626318_713391032205056_5799108142038834654_o", "ispublic": 1, "isfriend": 0, "isfamily": 0 },
        { "id": "36304410071", "owner": "94529704@N02", "secret": "61be07a169", "server": "4364", "farm": 5, "title": "20626294_713391522205007_7532802139740643177_o", "ispublic": 1, "isfriend": 0, "isfamily": 0 },
        { "id": "36304409941", "owner": "94529704@N02", "secret": "efaf393e88", "server": "4346", "farm": 5, "title": "20626270_713391712204988_8421705841556497708_o", "ispublic": 1, "isfriend": 0, "isfamily": 0 },
        { "id": "36273137642", "owner": "94529704@N02", "secret": "85db296954", "server": "4368", "farm": 5, "title": "20617058_713390832205076_4656535957243198221_o", "ispublic": 1, "isfriend": 0, "isfamily": 0 },
        { "id": "36304404861", "owner": "94529704@N02", "secret": "693a34bc21", "server": "4437", "farm": 5, "title": "19801009_713391008871725_2681277877986781314_o", "ispublic": 1, "isfriend": 0, "isfamily": 0 },
        { "id": "36273136252", "owner": "94529704@N02", "secret": "8b69869964", "server": "4374", "farm": 5, "title": "20615580_713391115538381_4805782559708511812_o", "ispublic": 1, "isfriend": 0, "isfamily": 0 },
        { "id": "34359959085", "owner": "94529704@N02", "secret": "2e73dbe5b2", "server": "2880", "farm": 3, "title": "YX5A0164", "ispublic": 1, "isfriend": 0, "isfamily": 0 },
        { "id": "34359959635", "owner": "94529704@N02", "secret": "e46747cde8", "server": "2885", "farm": 3, "title": "YX5A0135", "ispublic": 1, "isfriend": 0, "isfamily": 0 },
        { "id": "33975619350", "owner": "94529704@N02", "secret": "39ee0efe19", "server": "2817", "farm": 3, "title": "YX5A0126", "ispublic": 1, "isfriend": 0, "isfamily": 0 },
        { "id": "34359959945", "owner": "94529704@N02", "secret": "d69c946ac2", "server": "2869", "farm": 3, "title": "YX5A0095", "ispublic": 1, "isfriend": 0, "isfamily": 0 },
        { "id": "33975619640", "owner": "94529704@N02", "secret": "f8ac784a02", "server": "2871", "farm": 3, "title": "YX5A0088", "ispublic": 1, "isfriend": 0, "isfamily": 0 },
        { "id": "34359960495", "owner": "94529704@N02", "secret": "6a5d2ef413", "server": "4186", "farm": 5, "title": "YX5A0080", "ispublic": 1, "isfriend": 0, "isfamily": 0 },
        { "id": "33975620110", "owner": "94529704@N02", "secret": "d83db97624", "server": "2874", "farm": 3, "title": "YX5A0071", "ispublic": 1, "isfriend": 0, "isfamily": 0 },
        { "id": "34359960735", "owner": "94529704@N02", "secret": "ec5a8c02e5", "server": "2820", "farm": 3, "title": "YX5A0069", "ispublic": 1, "isfriend": 0, "isfamily": 0 },
        { "id": "33975620360", "owner": "94529704@N02", "secret": "8c2eb183cf", "server": "4189", "farm": 5, "title": "YX5A0066", "ispublic": 1, "isfriend": 0, "isfamily": 0 },
        { "id": "34359961015", "owner": "94529704@N02", "secret": "1fbd43e539", "server": "2816", "farm": 3, "title": "YX5A0064", "ispublic": 1, "isfriend": 0, "isfamily": 0 },
        { "id": "33975620660", "owner": "94529704@N02", "secret": "ba85ee0440", "server": "4178", "farm": 5, "title": "YX5A0063", "ispublic": 1, "isfriend": 0, "isfamily": 0 },
        { "id": "34359961255", "owner": "94529704@N02", "secret": "952b08aba6", "server": "2863", "farm": 3, "title": "YX5A0055", "ispublic": 1, "isfriend": 0, "isfamily": 0 },
        { "id": "33975621160", "owner": "94529704@N02", "secret": "34c3dbbf0b", "server": "2875", "farm": 3, "title": "YX5A0027", "ispublic": 1, "isfriend": 0, "isfamily": 0 },
        { "id": "34359961785", "owner": "94529704@N02", "secret": "86a7e65235", "server": "2863", "farm": 3, "title": "YX5A0016", "ispublic": 1, "isfriend": 0, "isfamily": 0 },
        { "id": "33975621670", "owner": "94529704@N02", "secret": "1e3372eb84", "server": "4172", "farm": 5, "title": "YX5A9964", "ispublic": 1, "isfriend": 0, "isfamily": 0 },
        { "id": "34359962125", "owner": "94529704@N02", "secret": "e9cd369ddf", "server": "2817", "farm": 3, "title": "YX5A9962", "ispublic": 1, "isfriend": 0, "isfamily": 0 },
        { "id": "34359962245", "owner": "94529704@N02", "secret": "49348c13b9", "server": "2878", "farm": 3, "title": "YX5A9952", "ispublic": 1, "isfriend": 0, "isfamily": 0 },
        { "id": "34359962345", "owner": "94529704@N02", "secret": "d1e305a411", "server": "2885", "farm": 3, "title": "YX5A9924", "ispublic": 1, "isfriend": 0, "isfamily": 0 }
    ] }, "stat": "ok" }
