{ "photoset": { "id": "72157688392979533", "primary": "29496559742", "owner": "94529704@N02", "ownername": "SoulEvilX",
    "photo": [
        { "id": "29316393220", "secret": "33f992f1ff", "server": "8066", "farm": 9, "title": "IMG_1186", "isprimary": 0, "ispublic": 1, "isfriend": 0, "isfamily": 0 },
        { "id": "29316389330", "secret": "bd1454b322", "server": "8148", "farm": 9, "title": "IMG_1186_1", "isprimary": 0, "ispublic": 1, "isfriend": 0, "isfamily": 0 },
        { "id": "29316386120", "secret": "d0abd32b0c", "server": "8140", "farm": 9, "title": "IMG_1186_resize", "isprimary": 0, "ispublic": 1, "isfriend": 0, "isfamily": 0 },
        { "id": "29316386050", "secret": "23a6f4ea17", "server": "8425", "farm": 9, "title": "IMG_1187", "isprimary": 0, "ispublic": 1, "isfriend": 0, "isfamily": 0 },
        { "id": "29525980571", "secret": "c7d345f8b3", "server": "8314", "farm": 9, "title": "IMG_1197", "isprimary": 0, "ispublic": 1, "isfriend": 0, "isfamily": 0 },
        { "id": "28981284584", "secret": "6e37cd4449", "server": "8446", "farm": 9, "title": "IMG_1197-2", "isprimary": 0, "ispublic": 1, "isfriend": 0, "isfamily": 0 },
        { "id": "29496574602", "secret": "68f64f0a1a", "server": "8442", "farm": 9, "title": "IMG_1199", "isprimary": 0, "ispublic": 1, "isfriend": 0, "isfamily": 0 },
        { "id": "29496572972", "secret": "dace64da00", "server": "8095", "farm": 9, "title": "IMG_1199_1", "isprimary": 0, "ispublic": 1, "isfriend": 0, "isfamily": 0 },
        { "id": "29496570992", "secret": "f2c01721df", "server": "8295", "farm": 9, "title": "IMG_1199_2", "isprimary": 0, "ispublic": 1, "isfriend": 0, "isfamily": 0 },
        { "id": "29525930691", "secret": "dc33ed5fe6", "server": "8703", "farm": 9, "title": "IMG_1199_3", "isprimary": 0, "ispublic": 1, "isfriend": 0, "isfamily": 0 },
        { "id": "29496568062", "secret": "0cb52c5479", "server": "8105", "farm": 9, "title": "IMG_1199_4", "isprimary": 0, "ispublic": 1, "isfriend": 0, "isfamily": 0 },
        { "id": "29525979291", "secret": "45ef13fcac", "server": "8407", "farm": 9, "title": "IMG_1199-2", "isprimary": 0, "ispublic": 1, "isfriend": 0, "isfamily": 0 },
        { "id": "28981282944", "secret": "c6b584f506", "server": "8473", "farm": 9, "title": "IMG_1226", "isprimary": 0, "ispublic": 1, "isfriend": 0, "isfamily": 0 },
        { "id": "29525975421", "secret": "5ab11e1ec5", "server": "8795", "farm": 9, "title": "IMG_1226-2", "isprimary": 0, "ispublic": 1, "isfriend": 0, "isfamily": 0 },
        { "id": "28981281004", "secret": "de45fc1c73", "server": "8037", "farm": 9, "title": "IMG_1245", "isprimary": 0, "ispublic": 1, "isfriend": 0, "isfamily": 0 },
        { "id": "29496566592", "secret": "ba7cdaa1bf", "server": "8007", "farm": 9, "title": "IMG_1250", "isprimary": 0, "ispublic": 1, "isfriend": 0, "isfamily": 0 },
        { "id": "29525928141", "secret": "a25e77cfbd", "server": "8817", "farm": 9, "title": "IMG_1253", "isprimary": 0, "ispublic": 1, "isfriend": 0, "isfamily": 0 },
        { "id": "29496565702", "secret": "33ccafd805", "server": "8054", "farm": 9, "title": "IMG_1256", "isprimary": 0, "ispublic": 1, "isfriend": 0, "isfamily": 0 },
        { "id": "29316424470", "secret": "9af62931e0", "server": "8423", "farm": 9, "title": "IMG_1273", "isprimary": 0, "ispublic": 1, "isfriend": 0, "isfamily": 0 },
        { "id": "28981278324", "secret": "c0afe28a1b", "server": "8350", "farm": 9, "title": "IMG_1281", "isprimary": 0, "ispublic": 1, "isfriend": 0, "isfamily": 0 },
        { "id": "28981276924", "secret": "ddbae02f02", "server": "8257", "farm": 9, "title": "IMG_1324", "isprimary": 0, "ispublic": 1, "isfriend": 0, "isfamily": 0 },
        { "id": "29316418850", "secret": "3ae00ee1b2", "server": "8885", "farm": 9, "title": "IMG_1330", "isprimary": 0, "ispublic": 1, "isfriend": 0, "isfamily": 0 },
        { "id": "29525927361", "secret": "e94e7955f9", "server": "8187", "farm": 9, "title": "IMG_1330-2", "isprimary": 0, "ispublic": 1, "isfriend": 0, "isfamily": 0 },
        { "id": "29496563602", "secret": "34470c9220", "server": "8303", "farm": 9, "title": "IMG_1330-3", "isprimary": 0, "ispublic": 1, "isfriend": 0, "isfamily": 0 },
        { "id": "29525924591", "secret": "388abbea92", "server": "8466", "farm": 9, "title": "IMG_1330-4", "isprimary": 0, "ispublic": 1, "isfriend": 0, "isfamily": 0 },
        { "id": "29316418170", "secret": "8174b8e00d", "server": "8330", "farm": 9, "title": "IMG_1330-4_resize", "isprimary": 0, "ispublic": 1, "isfriend": 0, "isfamily": 0 },
        { "id": "29496683542", "secret": "5db8e04560", "server": "8216", "farm": 9, "title": "IMG_1334", "isprimary": 0, "ispublic": 1, "isfriend": 0, "isfamily": 0 },
        { "id": "23800980474", "secret": "08037da909", "server": "1677", "farm": 2, "title": "IMG_5846", "isprimary": 0, "ispublic": 1, "isfriend": 0, "isfamily": 0 },
        { "id": "24061375059", "secret": "af3243cd34", "server": "1681", "farm": 2, "title": "IMG_5853", "isprimary": 0, "ispublic": 1, "isfriend": 0, "isfamily": 0 },
        { "id": "24346708061", "secret": "9f81bf9976", "server": "1571", "farm": 2, "title": "IMG_5855", "isprimary": 0, "ispublic": 1, "isfriend": 0, "isfamily": 0 },
        { "id": "24320903082", "secret": "ee58c6e716", "server": "1654", "farm": 2, "title": "IMG_5896", "isprimary": 0, "ispublic": 1, "isfriend": 0, "isfamily": 0 },
        { "id": "23800979454", "secret": "8603876d57", "server": "1462", "farm": 2, "title": "IMG_5899", "isprimary": 0, "ispublic": 1, "isfriend": 0, "isfamily": 0 },
        { "id": "24061374059", "secret": "95a4113cd3", "server": "1661", "farm": 2, "title": "IMG_5899-2", "isprimary": 0, "ispublic": 1, "isfriend": 0, "isfamily": 0 },
        { "id": "24402977676", "secret": "4160104a19", "server": "1595", "farm": 2, "title": "IMG_6233", "isprimary": 0, "ispublic": 1, "isfriend": 0, "isfamily": 0 },
        { "id": "24133564480", "secret": "f299e14eff", "server": "1449", "farm": 2, "title": "IMG_6262", "isprimary": 0, "ispublic": 1, "isfriend": 0, "isfamily": 0 },
        { "id": "24402977046", "secret": "c47d3770ee", "server": "1467", "farm": 2, "title": "IMG_6264", "isprimary": 0, "ispublic": 1, "isfriend": 0, "isfamily": 0 },
        { "id": "23800977694", "secret": "aab5e3b426", "server": "1699", "farm": 2, "title": "IMG_6300", "isprimary": 0, "ispublic": 1, "isfriend": 0, "isfamily": 0 },
        { "id": "24133563860", "secret": "2377213c37", "server": "1720", "farm": 2, "title": "IMG_6390", "isprimary": 0, "ispublic": 1, "isfriend": 0, "isfamily": 0 },
        { "id": "24402976306", "secret": "e6ebc779dc", "server": "1578", "farm": 2, "title": "IMG_6401", "isprimary": 0, "ispublic": 1, "isfriend": 0, "isfamily": 0 },
        { "id": "24061371889", "secret": "050dabe8cb", "server": "1664", "farm": 2, "title": "IMG_6414", "isprimary": 0, "ispublic": 1, "isfriend": 0, "isfamily": 0 },
        { "id": "24346707971", "secret": "e14c1ae427", "server": "1642", "farm": 2, "title": "IMG_6419", "isprimary": 0, "ispublic": 1, "isfriend": 0, "isfamily": 0 },
        { "id": "24061372059", "secret": "08f719745b", "server": "1619", "farm": 2, "title": "IMG_6440", "isprimary": 0, "ispublic": 1, "isfriend": 0, "isfamily": 0 },
        { "id": "24429168995", "secret": "abe0cb294f", "server": "1463", "farm": 2, "title": "IMG_6449", "isprimary": 0, "ispublic": 1, "isfriend": 0, "isfamily": 0 },
        { "id": "23800976134", "secret": "a78fab093e", "server": "1466", "farm": 2, "title": "IMG_6450", "isprimary": 0, "ispublic": 1, "isfriend": 0, "isfamily": 0 },
        { "id": "21105289326", "secret": "e9f09a44b8", "server": "5785", "farm": 6, "title": "IMG_1156", "isprimary": 0, "ispublic": 1, "isfriend": 0, "isfamily": 0 },
        { "id": "20548816589", "secret": "82293ef5ce", "server": "581", "farm": 1, "title": "IMG_9112", "isprimary": 0, "ispublic": 1, "isfriend": 0, "isfamily": 0 },
        { "id": "20735591045", "secret": "304763dff4", "server": "5702", "farm": 6, "title": "IMG_945100_1", "isprimary": 0, "ispublic": 1, "isfriend": 0, "isfamily": 0 },
        { "id": "20547841198", "secret": "9e37d32d7f", "server": "5744", "farm": 6, "title": "IMG_8624", "isprimary": 0, "ispublic": 1, "isfriend": 0, "isfamily": 0 }
    ], "page": 2, "per_page": 50, "perpage": 50, "pages": 2, "title": "Safety", "total": 98 }, "stat": "ok" }
