{ "photoset": { "id": "72157688392979533", "primary": "29496559742", "owner": "94529704@N02", "ownername": "SoulEvilX",
    "photo": [
        { "id": "29496559742", "secret": "6e6e229141", "server": "8269", "farm": 9, "title": "IMG_1419", "isprimary": 1, "ispublic": 1, "isfriend": 0, "isfamily": 0 },
        { "id": "29496557102", "secret": "d5c1a13c07", "server": "8040", "farm": 9, "title": "IMG_1433", "isprimary": 0, "ispublic": 1, "isfriend": 0, "isfamily": 0 },
        { "id": "29496555082", "secret": "9f7d888c6f", "server": "8651", "farm": 9, "title": "IMG_1435", "isprimary": 0, "ispublic": 1, "isfriend": 0, "isfamily": 0 },
        { "id": "29525917751", "secret": "3bc5af1b5b", "server": "7751", "farm": 8, "title": "IMG_1444", "isprimary": 0, "ispublic": 1, "isfriend": 0, "isfamily": 0 },
        { "id": "29496551592", "secret": "95397a2809", "server": "8209", "farm": 9, "title": "IMG_1458", "isprimary": 0, "ispublic": 1, "isfriend": 0, "isfamily": 0 },
        { "id": "29525915491", "secret": "551c0f6def", "server": "8299", "farm": 9, "title": "IMG_1460", "isprimary": 0, "ispublic": 1, "isfriend": 0, "isfamily": 0 },
        { "id": "29496549542", "secret": "f580e11d78", "server": "8068", "farm": 9, "title": "IMG_1487", "isprimary": 0, "ispublic": 1, "isfriend": 0, "isfamily": 0 },
        { "id": "28981220264", "secret": "d63d22ea9e", "server": "8734", "farm": 9, "title": "IMG_1495", "isprimary": 0, "ispublic": 1, "isfriend": 0, "isfamily": 0 },
        { "id": "29525913181", "secret": "dd4aba80f2", "server": "8175", "farm": 9, "title": "IMG_1495-2", "isprimary": 0, "ispublic": 1, "isfriend": 0, "isfamily": 0 },
        { "id": "28981216794", "secret": "0732e974a4", "server": "8313", "farm": 9, "title": "IMG_1518", "isprimary": 0, "ispublic": 1, "isfriend": 0, "isfamily": 0 },
        { "id": "30420584894", "secret": "e019b2f6da", "server": "5626", "farm": 6, "title": "IMG_4266", "isprimary": 0, "ispublic": 1, "isfriend": 0, "isfamily": 0 },
        { "id": "31205832136", "secret": "5ba22c3736", "server": "5824", "farm": 6, "title": "IMG_4274", "isprimary": 0, "ispublic": 1, "isfriend": 0, "isfamily": 0 },
        { "id": "30420584264", "secret": "67562392de", "server": "5490", "farm": 6, "title": "IMG_4277", "isprimary": 0, "ispublic": 1, "isfriend": 0, "isfamily": 0 },
        { "id": "30420583254", "secret": "3d8c512f79", "server": "5737", "farm": 6, "title": "IMG_4301", "isprimary": 0, "ispublic": 1, "isfriend": 0, "isfamily": 0 },
        { "id": "30420582424", "secret": "a46be29193", "server": "5671", "farm": 6, "title": "IMG_4307", "isprimary": 0, "ispublic": 1, "isfriend": 0, "isfamily": 0 },
        { "id": "30420581654", "secret": "e404f71ed8", "server": "5647", "farm": 6, "title": "IMG_4314", "isprimary": 0, "ispublic": 1, "isfriend": 0, "isfamily": 0 },
        { "id": "30420581164", "secret": "25de985cc7", "server": "5574", "farm": 6, "title": "IMG_4324", "isprimary": 0, "ispublic": 1, "isfriend": 0, "isfamily": 0 },
        { "id": "31205839296", "secret": "efbc969464", "server": "5343", "farm": 6, "title": "IMG_4328", "isprimary": 0, "ispublic": 1, "isfriend": 0, "isfamily": 0 },
        { "id": "31205838076", "secret": "cb62a2e818", "server": "5699", "farm": 6, "title": "IMG_4333", "isprimary": 0, "ispublic": 1, "isfriend": 0, "isfamily": 0 },
        { "id": "31205836496", "secret": "65762384bf", "server": "5725", "farm": 6, "title": "IMG_4339", "isprimary": 0, "ispublic": 1, "isfriend": 0, "isfamily": 0 },
        { "id": "31205835556", "secret": "fc964e7767", "server": "5808", "farm": 6, "title": "IMG_4350", "isprimary": 0, "ispublic": 1, "isfriend": 0, "isfamily": 0 },
        { "id": "31205834496", "secret": "d3de4fa1d2", "server": "5458", "farm": 6, "title": "IMG_4355", "isprimary": 0, "ispublic": 1, "isfriend": 0, "isfamily": 0 },
        { "id": "31205833516", "secret": "f607e04279", "server": "5334", "farm": 6, "title": "IMG_4382", "isprimary": 0, "ispublic": 1, "isfriend": 0, "isfamily": 0 },
        { "id": "31205829846", "secret": "4e2ec824a9", "server": "5583", "farm": 6, "title": "IMG_4401", "isprimary": 0, "ispublic": 1, "isfriend": 0, "isfamily": 0 },
        { "id": "28982985113", "secret": "1fa7ebe214", "server": "8429", "farm": 9, "title": "_MG_2029", "isprimary": 0, "ispublic": 1, "isfriend": 0, "isfamily": 0 },
        { "id": "28982983723", "secret": "183dbae05d", "server": "8033", "farm": 9, "title": "_MG_2031", "isprimary": 0, "ispublic": 1, "isfriend": 0, "isfamily": 0 },
        { "id": "28981300464", "secret": "8e2c949546", "server": "7721", "farm": 8, "title": "_MG_2031-2", "isprimary": 0, "ispublic": 1, "isfriend": 0, "isfamily": 0 },
        { "id": "28981297984", "secret": "1d0b191e04", "server": "8001", "farm": 9, "title": "_MG_2054", "isprimary": 0, "ispublic": 1, "isfriend": 0, "isfamily": 0 },
        { "id": "28981296294", "secret": "38b00e9f8f", "server": "8049", "farm": 9, "title": "_MG_2057", "isprimary": 0, "ispublic": 1, "isfriend": 0, "isfamily": 0 },
        { "id": "28981295074", "secret": "0e0031243a", "server": "7461", "farm": 8, "title": "_MG_2122", "isprimary": 0, "ispublic": 1, "isfriend": 0, "isfamily": 0 },
        { "id": "28981293644", "secret": "27286d4fd2", "server": "8104", "farm": 9, "title": "_MG_2132", "isprimary": 0, "ispublic": 1, "isfriend": 0, "isfamily": 0 },
        { "id": "29572492706", "secret": "ef3b26d75c", "server": "8452", "farm": 9, "title": "_MG_2187", "isprimary": 0, "ispublic": 1, "isfriend": 0, "isfamily": 0 },
        { "id": "28981291234", "secret": "b2a585d7f8", "server": "8365", "farm": 9, "title": "_MG_2187-2", "isprimary": 0, "ispublic": 1, "isfriend": 0, "isfamily": 0 },
        { "id": "29572486896", "secret": "b264454ef6", "server": "8102", "farm": 9, "title": "IMG_1149", "isprimary": 0, "ispublic": 1, "isfriend": 0, "isfamily": 0 },
        { "id": "28981289514", "secret": "c077a562fc", "server": "8245", "farm": 9, "title": "IMG_1150", "isprimary": 0, "ispublic": 1, "isfriend": 0, "isfamily": 0 },
        { "id": "29316415110", "secret": "9032b12376", "server": "8091", "farm": 9, "title": "IMG_1155", "isprimary": 0, "ispublic": 1, "isfriend": 0, "isfamily": 0 },
        { "id": "28981288074", "secret": "0c7de07378", "server": "8524", "farm": 9, "title": "IMG_1156", "isprimary": 0, "ispublic": 1, "isfriend": 0, "isfamily": 0 },
        { "id": "28981286904", "secret": "74590be8e8", "server": "8286", "farm": 9, "title": "IMG_1161", "isprimary": 0, "ispublic": 1, "isfriend": 0, "isfamily": 0 },
        { "id": "29316413410", "secret": "29ef37335b", "server": "8118", "farm": 9, "title": "IMG_1161-1", "isprimary": 0, "ispublic": 1, "isfriend": 0, "isfamily": 0 },
        { "id": "29525983201", "secret": "64b4cd9a6b", "server": "8893", "farm": 9, "title": "IMG_1161-2", "isprimary": 0, "ispublic": 1, "isfriend": 0, "isfamily": 0 },
        { "id": "29316409260", "secret": "a3e18bb20f", "server": "8205", "farm": 9, "title": "IMG_1164", "isprimary": 0, "ispublic": 1, "isfriend": 0, "isfamily": 0 },
        { "id": "29316405820", "secret": "a818dc9dc4", "server": "8412", "farm": 9, "title": "IMG_1165", "isprimary": 0, "ispublic": 1, "isfriend": 0, "isfamily": 0 },
        { "id": "28981285414", "secret": "55dc698113", "server": "8496", "farm": 9, "title": "IMG_1172", "isprimary": 0, "ispublic": 1, "isfriend": 0, "isfamily": 0 },
        { "id": "29316403700", "secret": "ddaf7c63c4", "server": "8071", "farm": 9, "title": "IMG_1172_resize", "isprimary": 0, "ispublic": 1, "isfriend": 0, "isfamily": 0 },
        { "id": "29316403250", "secret": "697c5ede27", "server": "8252", "farm": 9, "title": "IMG_1172-1", "isprimary": 0, "ispublic": 1, "isfriend": 0, "isfamily": 0 },
        { "id": "29316400220", "secret": "7a8c23365b", "server": "8010", "farm": 9, "title": "IMG_1173", "isprimary": 0, "ispublic": 1, "isfriend": 0, "isfamily": 0 },
        { "id": "29316397090", "secret": "b769428d4b", "server": "8501", "farm": 9, "title": "IMG_1174", "isprimary": 0, "ispublic": 1, "isfriend": 0, "isfamily": 0 },
        { "id": "29316396330", "secret": "deed9849d6", "server": "8345", "farm": 9, "title": "IMG_1177", "isprimary": 0, "ispublic": 1, "isfriend": 0, "isfamily": 0 },
        { "id": "29316395720", "secret": "b0146ea060", "server": "8128", "farm": 9, "title": "IMG_1184", "isprimary": 0, "ispublic": 1, "isfriend": 0, "isfamily": 0 },
        { "id": "29316395060", "secret": "4a47ef1a8e", "server": "8803", "farm": 9, "title": "IMG_1184-1", "isprimary": 0, "ispublic": 1, "isfriend": 0, "isfamily": 0 }
    ], "page": 1, "per_page": 50, "perpage": 50, "pages": 2, "title": "Safety", "total": 98 }, "stat": "ok" }
